{"queryTime":"0 Seconds","totalCount":550,"pageNumber":1,"perPage":200,"pageCount":200,"data":[{"id":22900,"name":"RCweek50reversed+valentineMIX","duration":28},{"id":231408,"name":"Hand Of Blood","duration":13},{"id":896998,"name":"Valentine Special","duration":28},{"id":1002688,"name":"14th Feb Spcl","duration":29},{"id":897424,"name":"Hapy 2gether","duration":28},{"id":12665,"name":"Love Like Woe RC  Week 203","duration":30},{"id":22302,"name":"Love message","duration":28},{"id":858621,"name":"Good Bye Valentine","duration":29},{"id":1111773,"name":"Hot Valentine","duration":2},{"id":95141,"name":"Go To Hell - RC Week 204","duration":30},{"id":40002,"name":"Aaye ho meri jindgi","duration":22},{"id":897419,"name":"Romatic Ringtone","duration":25},{"id":188772,"name":"New Valentine Bell","duration":27},{"id":835619,"name":"Punjabi Valentine","duration":19},{"id":899541,"name":"Romantic Valentine","duration":29},{"id":1002686,"name":"14th Feb Spcl","duration":17},{"id":1196897,"name":"Valentines Day","duration":20},{"id":948759,"name":"Romantic Guitar Tone","duration":14},{"id":1111772,"name":"Your Turn Highness","duration":2},{"id":95312,"name":"Halo Love \u00c3\u00a1\u00c6\u2019\u00c2\u00a6 - RC Week 203","duration":29},{"id":837697,"name":"Feb 14 Gift","duration":20},{"id":1334096,"name":"Valentine-2","duration":17},{"id":1304382,"name":"Valentine Song","duration":29},{"id":1332804,"name":"You Are Mine Forever","duration":11},{"id":837104,"name":"Soft Romantic New","duration":29},{"id":1335998,"name":"I Love You","duration":14},{"id":1228832,"name":"Rm 222","duration":29},{"id":38541,"name":"Ek Tera Pyar","duration":28},{"id":245762,"name":"Valentines Day","duration":10},{"id":834973,"name":"Future Valentine","duration":9},{"id":837840,"name":"14 Feb Special","duration":11},{"id":14557,"name":"When you believe","duration":19},{"id":1002215,"name":"Valentines Bells","duration":21},{"id":796827,"name":"Tennu Lai Ke Jaana","duration":25},{"id":946917,"name":"Valantine Vasu","duration":29},{"id":1002720,"name":"Valentine Special01","duration":22},{"id":837755,"name":"I Love You","duration":19},{"id":1226005,"name":"You Didnt Mean It","duration":25},{"id":18771,"name":"I love U","duration":10},{"id":1002830,"name":"Valentine Rnb Instru","duration":29},{"id":859049,"name":"Valentines Day Jazz","duration":23},{"id":836649,"name":"Best Velentine Song","duration":29},{"id":967666,"name":"Valentine","duration":18},{"id":839016,"name":"Rhtdm Valentine","duration":28},{"id":1335798,"name":"Be My Valentine","duration":27},{"id":1104498,"name":"Flower Delivery","duration":9},{"id":1140772,"name":"Valentines Day","duration":18},{"id":836414,"name":"Valentine Tone Nice","duration":1},{"id":43168,"name":"\u00c3\u00a2\u00e2\u201e\u00a2\u00c2\u00a5 Chipmunks In Love \u00c3\u00a2\u00e2\u201e\u00a2\u00c2\u00a5 Rc Week 203 \u00c3\u00a2\u00e2\u201e\u00a2","duration":29},{"id":95285,"name":"Valentine-RC WEEK 203","duration":30},{"id":783383,"name":"Valentine Special 2","duration":26},{"id":59996,"name":"Break your heart","duration":28},{"id":838186,"name":"Soft Love Music","duration":28},{"id":1334100,"name":"Valentine-message","duration":10},{"id":834958,"name":"Romantic","duration":27},{"id":904981,"name":"Upload Download","duration":29},{"id":1330646,"name":"Valentines Special","duration":15},{"id":837850,"name":"Magic Valentine","duration":22},{"id":95314,"name":"\u00c3\u00a2\u00e2\u201e\u00a2\u00c2\u00a5 Chipmunks In Love \u00c3\u00a2\u00e2\u201e\u00a2\u00c2\u00a5 Rc Week 203 \u00c3\u00a2\u00e2\u201e\u00a2","duration":29},{"id":26004,"name":"Unchained Melody - RC Week 148","duration":29},{"id":1104497,"name":"Its Christian Grey","duration":8},{"id":967404,"name":"Valentine Mashup","duration":29},{"id":1002692,"name":"14th Feb Spcl","duration":28},{"id":21203,"name":"Oceans Of Love","duration":30},{"id":95202,"name":"KissMe Valentine Special - RC Week 203","duration":29},{"id":1303159,"name":"Redemption","duration":27},{"id":63006,"name":"valentine bells 2011","duration":27},{"id":1002691,"name":"Rainy Valentine Tone","duration":27},{"id":73414,"name":"Be My Valentine","duration":16},{"id":837287,"name":"Valentine Mms 2011","duration":8},{"id":44060,"name":"Valentine's Day mix - RC Week 203","duration":29},{"id":91122,"name":"Valentine Love Theme","duration":29},{"id":1001771,"name":"Pyar Hua Ikrar Hua","duration":29},{"id":1030694,"name":"VALENTINE TRANC 2014","duration":26},{"id":1104495,"name":"Edible Arrangements","duration":15},{"id":834955,"name":"Soft Valentine","duration":23},{"id":1232504,"name":"I Love U","duration":4},{"id":900645,"name":"Love","duration":28},{"id":838041,"name":"Valentine Special","duration":29},{"id":285676,"name":"Raja Hindustani","duration":28},{"id":899386,"name":"Valentine Special","duration":18},{"id":84887,"name":"Oceans Of Love","duration":30},{"id":837821,"name":"Cute Love Remix","duration":18},{"id":75422,"name":"Halo Love \u00c3\u00a1\u00c6\u2019\u00c2\u00a6 - RC Week 203","duration":29},{"id":365118,"name":"Soniye","duration":22},{"id":330307,"name":"Soft Romantic Tune","duration":29},{"id":1320910,"name":"Khuda Jaane","duration":20},{"id":19148,"name":"Love Sucks - RC Week 204","duration":29},{"id":77691,"name":"Happy Valentine's","duration":10},{"id":899373,"name":"Valentine Special","duration":23},{"id":1337189,"name":"I Love U","duration":29},{"id":834962,"name":"For Valentine","duration":28},{"id":326167,"name":"Sweety Pumpkin","duration":7},{"id":1333123,"name":"Be My Valentine-4","duration":26},{"id":1293331,"name":"Night With You","duration":27},{"id":838337,"name":"Piano Dream","duration":29},{"id":899396,"name":"Valentine Special","duration":28},{"id":383158,"name":"Valentine Music","duration":17},{"id":833228,"name":"Valentine Tone","duration":25},{"id":834961,"name":"Romance Music","duration":25},{"id":834950,"name":"Gift Of Love","duration":24},{"id":834953,"name":"Valentine Theme","duration":28},{"id":899425,"name":"Valentine Special","duration":28},{"id":902024,"name":"Valentine Special","duration":26},{"id":1111681,"name":"355 mp3","duration":1},{"id":834963,"name":"Best Valentine","duration":28},{"id":84918,"name":"be my valentine","duration":29},{"id":901177,"name":"Valentines Day Spl","duration":29},{"id":1030695,"name":"VALENTINE BOLLYWOOD","duration":21},{"id":1145898,"name":"Sam3ny Nabdk","duration":29},{"id":75454,"name":"Jiv rangala valentine mix- RC Week203","duration":27},{"id":899485,"name":"Valentine","duration":12},{"id":837347,"name":"Valentine New","duration":28},{"id":900819,"name":"Valentine Special","duration":24},{"id":914884,"name":"Valentine Mash","duration":28},{"id":899381,"name":"Valentine Special","duration":25},{"id":906873,"name":"Valentine Mashup","duration":29},{"id":1002684,"name":"14th Feb Spcl","duration":28},{"id":1110573,"name":"I love you","duration":1},{"id":974124,"name":"Valentine Mashup","duration":28},{"id":1337569,"name":"Valentine Sms","duration":4},{"id":20120,"name":"valentine","duration":17},{"id":1233215,"name":"Valentine 3","duration":29},{"id":899398,"name":"Valentine Special","duration":20},{"id":84939,"name":"valentine heart","duration":28},{"id":39630,"name":"Ek duje ke liye","duration":21},{"id":1233209,"name":"Valentine Sms 1","duration":15},{"id":899529,"name":"Valentine Guitar","duration":26},{"id":837328,"name":"Romance Tune","duration":28},{"id":833220,"name":"Romantic Valentines","duration":28},{"id":899401,"name":"Valentine Special","duration":23},{"id":1336273,"name":"Valentines Day","duration":5},{"id":20049,"name":"Words","duration":29},{"id":60169,"name":"love tone","duration":23},{"id":837141,"name":"Valentine 2k11","duration":28},{"id":836806,"name":"New Valentine 2011","duration":28},{"id":903707,"name":"Romantic Flute","duration":23},{"id":1145585,"name":"valentine day spl","duration":29},{"id":42792,"name":"2009 Mix by Dj","duration":28},{"id":1334358,"name":"Paas Aao Na","duration":19},{"id":900882,"name":"I Luv U 14th Feb Spl","duration":21},{"id":209101,"name":"Valentine Bells","duration":27},{"id":900566,"name":"Valentines Day Spl","duration":29},{"id":59011,"name":"Love Songs Instr.","duration":29},{"id":834954,"name":"Valentine Sms","duration":6},{"id":1334263,"name":"I Love You Message","duration":2},{"id":252096,"name":"Best Valentine","duration":23},{"id":901043,"name":"Valentine Mashup 1","duration":29},{"id":1002574,"name":"Valentine Rb Beat","duration":29},{"id":837719,"name":"Valentine Funny","duration":18},{"id":835217,"name":"Ex Valentine","duration":28},{"id":1104500,"name":"Its Your Valentine","duration":14},{"id":148017,"name":"Resident Evil 3","duration":29},{"id":1002721,"name":"Valentine Special05","duration":14},{"id":1336277,"name":"Valentines Day","duration":4},{"id":835608,"name":"Most Romantic","duration":28},{"id":75379,"name":"Valentine-RC WEEK 203","duration":30},{"id":899447,"name":"Valentine Msg","duration":4},{"id":379798,"name":"Love Valentines","duration":16},{"id":836970,"name":"My Love Message","duration":5},{"id":837752,"name":"Sad Valentine","duration":5},{"id":1104487,"name":"Cupid Calling","duration":15},{"id":56106,"name":"love paradise","duration":30},{"id":1111672,"name":"355","duration":1},{"id":897008,"name":"14 Feb Special","duration":28},{"id":1111680,"name":"347 mp3","duration":1},{"id":43067,"name":"Ssivic Love remix - RC week 100","duration":26},{"id":899543,"name":"Sweetest Beats Ever","duration":15},{"id":1104515,"name":"Pick Up The Phone","duration":13},{"id":893596,"name":"Ryan Gosling","duration":29},{"id":899436,"name":"Valentine Guitar","duration":18},{"id":1002809,"name":"Instrumental Love","duration":29},{"id":838192,"name":"Super Ringer","duration":28},{"id":1336207,"name":"Valentine Romantic","duration":29},{"id":798004,"name":"Kuch Is Tarah","duration":29},{"id":48280,"name":"I Love You","duration":14},{"id":919408,"name":"Valentine Funny Song","duration":18},{"id":1002657,"name":"Guitar Love Tune New","duration":28},{"id":36822,"name":"atas nama cinta","duration":28},{"id":909630,"name":"Valentinemashup 2012","duration":29},{"id":837097,"name":"Love Theme","duration":22},{"id":837085,"name":"Tere Bin","duration":25},{"id":788513,"name":"Romantic Band","duration":26},{"id":1320481,"name":"Tera Hone Laga Hu","duration":29},{"id":897658,"name":"Valentines Special","duration":12},{"id":95370,"name":"Love is wonder-RC WEEK 203","duration":29},{"id":19139,"name":"Love of my Life - RC week 147","duration":29},{"id":899466,"name":"This Valentine","duration":6},{"id":897013,"name":"14 Feb Guitar","duration":27},{"id":1105223,"name":"Baaton Ko Teri","duration":29},{"id":1334262,"name":"Romantic Message","duration":4},{"id":898906,"name":"February 14 Violin","duration":17},{"id":897411,"name":"Luv Changes Evrythng","duration":21},{"id":214691,"name":"Valentines Music","duration":28},{"id":866102,"name":"Valentine","duration":4},{"id":899446,"name":"Valentine Love","duration":23},{"id":75457,"name":"Stereo Love ( Idy Mix ) RC Week 203","duration":29},{"id":1335411,"name":"Be My Valentine","duration":29},{"id":899389,"name":"Valentine Special","duration":28},{"id":19906,"name":"Valentine's day","duration":28}]}