{"queryTime":"0 Seconds","totalCount":1239,"pageNumber":1,"perPage":200,"pageCount":200,"data":[{"id":33312,"name":"adam olsayd\u00c4\u00b1n","duration":13},{"id":1158067,"name":"Dombra","duration":25},{"id":1168979,"name":"Icant be Hakan Akkus","duration":30},{"id":1247250,"name":"Bir Mumdur","duration":29},{"id":1213746,"name":"Turkish Remix","duration":29},{"id":1329631,"name":"Turkish Sakin Arama","duration":29},{"id":1260066,"name":"Nokia Turkish Mix","duration":29},{"id":1041804,"name":"can guitar","duration":25},{"id":1302850,"name":"Kul Ve Ates","duration":11},{"id":163997,"name":"Mix  Indian Turkish","duration":29},{"id":335116,"name":"Emrah-sevdim","duration":21},{"id":72339,"name":"adam olsayd\u00c4\u00b1n","duration":13},{"id":960172,"name":"Imkansiz Ask","duration":29},{"id":1105241,"name":"Nokia Turkish","duration":29},{"id":153978,"name":"Turkish Violin","duration":25},{"id":945757,"name":"Titanic Turkish Edit","duration":19},{"id":53821,"name":"ka\u00c3\u00a7ak","duration":20},{"id":1168397,"name":"Yuksek DaglaraKarVar","duration":30},{"id":351684,"name":"Best Ringtone","duration":28},{"id":999833,"name":"Turkish Music","duration":27},{"id":1282567,"name":"Zgr Cevik - Seni A","duration":29},{"id":74963,"name":"frog1","duration":27},{"id":200088,"name":"Turkish Masterpiece","duration":28},{"id":1038346,"name":"Turkish Folk Music","duration":17},{"id":1110982,"name":"Feveran","duration":7},{"id":1207021,"name":"Seninle Basim Dertte","duration":26},{"id":1328306,"name":"Tan Tasci","duration":27},{"id":896800,"name":"Nice Turkish","duration":28},{"id":997343,"name":"Syle","duration":19},{"id":920494,"name":"Turkish Tone4","duration":29},{"id":1187450,"name":"Sar Beni","duration":29},{"id":1085917,"name":"Best Turkish Qanoon","duration":29},{"id":1136978,"name":"NaspooTV - Turkish","duration":3},{"id":1350940,"name":"Turkish Nokia","duration":26},{"id":335401,"name":"Oriental Melody","duration":27},{"id":172520,"name":"Ardahanin Yollari Tu","duration":17},{"id":32541,"name":"new nok\u00c4\u00b1a","duration":16},{"id":1036891,"name":"armenian clarinet","duration":29},{"id":1142823,"name":"Senden Bana Kalan","duration":29},{"id":897514,"name":"Islamic Ringtone","duration":29},{"id":1317668,"name":"Kvp Ceto2009","duration":23},{"id":1085258,"name":"Turkish Music Nayino","duration":29},{"id":114152,"name":"India Turki 1","duration":29},{"id":945720,"name":"Amazing Guitar","duration":29},{"id":96436,"name":"apache2","duration":30},{"id":1041643,"name":"Turkish timbre","duration":29},{"id":1357982,"name":"Mesaj Geldi","duration":3},{"id":930103,"name":"Turklerinmekani Nele","duration":17},{"id":381011,"name":"Asi","duration":29},{"id":869068,"name":"Kvp Hd Byemre","duration":27},{"id":972723,"name":"Turkish Dance","duration":21},{"id":1287996,"name":"Turkish Delight","duration":28},{"id":892676,"name":"Keman Test Sbr","duration":27},{"id":330038,"name":"Ney Sesi","duration":29},{"id":873826,"name":"Turkish Dance","duration":28},{"id":1322734,"name":"Cendere Turkish","duration":29},{"id":1269475,"name":"Canim Janim","duration":29},{"id":1199897,"name":"Trurkish Music","duration":26},{"id":50603,"name":"SMS Turkish","duration":4},{"id":1194280,"name":"E Dhimbshme","duration":19},{"id":1141654,"name":"Eskiya","duration":29},{"id":985287,"name":"Yuregim Yanginlarda","duration":29},{"id":221512,"name":"Lutfen Gormeyeyim Se","duration":28},{"id":1090276,"name":"cahit berkay","duration":29},{"id":281074,"name":"Sila-dan Sonra","duration":27},{"id":980061,"name":"Lovely Sad Music","duration":29},{"id":896041,"name":"Bana Bir Saz Verin","duration":29},{"id":1145881,"name":"Yunus Emre - Sohbet","duration":29},{"id":1095422,"name":"Orient","duration":29},{"id":1227131,"name":"Storm","duration":26},{"id":1307967,"name":"Turkish New1","duration":20},{"id":218492,"name":"Sufi Music 3","duration":29},{"id":1203549,"name":"Mt - Ana Ana Part 2","duration":27},{"id":1143632,"name":"New Turkish Music","duration":29},{"id":333953,"name":"Dansoz","duration":29},{"id":1241556,"name":"Bass","duration":29},{"id":1170959,"name":"Yallah","duration":30},{"id":962165,"name":"Turkce Yarali","duration":29},{"id":828302,"name":"Gun Western","duration":6},{"id":1110327,"name":"Turkish Trap","duration":29},{"id":236666,"name":"K305rm305z305 Oda","duration":28},{"id":851250,"name":"Great Nay","duration":29},{"id":144540,"name":"Turkish New","duration":27},{"id":1084399,"name":"Turkish electro","duration":17},{"id":1098185,"name":"turkish rock","duration":28},{"id":1332395,"name":"Escobar Mantality","duration":17},{"id":1183117,"name":"Hande Yener","duration":29},{"id":990912,"name":"Turkishmovies","duration":17},{"id":1251435,"name":"Serdar Ortac","duration":28},{"id":1138461,"name":"turkish","duration":29},{"id":1263088,"name":"Turkish 2008","duration":27},{"id":1041791,"name":"Black love","duration":29},{"id":1041654,"name":"passenger","duration":22},{"id":33300,"name":"sevyeter","duration":19},{"id":977009,"name":"Buyuk Insan","duration":29},{"id":1041878,"name":"Turkish Sedge","duration":29},{"id":872537,"name":"Az Sonra","duration":17},{"id":351948,"name":"Al Bir De Burdan Yak","duration":29},{"id":1290520,"name":"Unut Sevme","duration":19},{"id":72333,"name":"sevyeter","duration":19},{"id":371920,"name":"Ahiska Lezginka","duration":28},{"id":998838,"name":"Kaval","duration":25},{"id":1307987,"name":"Kis Masali","duration":27},{"id":1147666,"name":"Uskudar","duration":19},{"id":999526,"name":"Bu Nasil Sevda 2","duration":11},{"id":33299,"name":"sevyeter","duration":5},{"id":332994,"name":"Beautiful Turkish","duration":27},{"id":286778,"name":"Violin Turko","duration":29},{"id":1295670,"name":"Turkish Beats","duration":24},{"id":66017,"name":"allad\u00c4\u00b1 pullad\u00c4\u00b1","duration":30},{"id":1158043,"name":"Gundogdu Marsi","duration":17},{"id":896039,"name":"Meczup","duration":29},{"id":963426,"name":"Farid Farjad Keman","duration":29},{"id":1242977,"name":"Habibi - Yak Motoru","duration":29},{"id":222506,"name":"Arabian Hiphop Mix","duration":28},{"id":1041875,"name":"your eyes are","duration":26},{"id":130322,"name":"Turkish Tone","duration":29},{"id":1220797,"name":"Ilahi","duration":29},{"id":1169789,"name":"Sen Sevda Misin 2","duration":21},{"id":1314988,"name":"Remix Halay","duration":29},{"id":896110,"name":"Saskin 2","duration":29},{"id":287172,"name":"Turkish Song","duration":29},{"id":172505,"name":"Vay Seni Vay Vay Tuf","duration":29},{"id":348458,"name":"Nokia Turkish","duration":27},{"id":24759,"name":"g as","duration":21},{"id":348246,"name":"Turkish","duration":22},{"id":1215558,"name":"Eylem - Aman","duration":28},{"id":74977,"name":"\u00c5\u0178aban","duration":30},{"id":372578,"name":"Kurtlar Vadisi Polat","duration":29},{"id":172528,"name":"Kagizman Turk Tufi","duration":26},{"id":72524,"name":"nuri al\u00c3\u00a7o (tecav\u00c3\u00bcz m\u00c3\u00bczi\u00c4\u0178i)","duration":30},{"id":1118702,"name":"ALLAH ALLAH","duration":29},{"id":904209,"name":"Nazar Eyle -turkish","duration":29},{"id":1142822,"name":"Turkish Love","duration":24},{"id":1143831,"name":"kirgin ciceklar","duration":29},{"id":897486,"name":"Islamic Ringtone","duration":29},{"id":1140183,"name":"Turkish Violin","duration":29},{"id":1360126,"name":"Recep Ivedik Intro","duration":29},{"id":33368,"name":"Mana Mana","duration":19},{"id":1041562,"name":"violin turkish","duration":29},{"id":1102226,"name":"Asmali Konak","duration":28},{"id":1365008,"name":"Sms Guitar","duration":9},{"id":1147635,"name":"asklaftananlamaz","duration":13},{"id":188361,"name":"Nokia Turkish","duration":27},{"id":1266826,"name":"K-v-p Polat Alemdar","duration":29},{"id":896044,"name":"Bana Bir Saz Verin 2","duration":29},{"id":907322,"name":"Leyla Ile Mecnun","duration":29},{"id":33297,"name":"sevyeter","duration":19},{"id":1149975,"name":"Turkish Trap","duration":30},{"id":1204739,"name":"Ska Ka-bop","duration":24},{"id":1307968,"name":"Turkish New2","duration":24},{"id":990897,"name":"Turkishmovies2","duration":27},{"id":961624,"name":"Turkish Belalim 2","duration":23},{"id":1142276,"name":"Dolana","duration":29},{"id":1123198,"name":"Gameof thrones kaval","duration":29},{"id":138225,"name":"Super Turkish Tune","duration":17},{"id":1100753,"name":"Mehter","duration":17},{"id":997434,"name":"Imkansiz Ask","duration":28},{"id":297409,"name":"Dj Tufi Turkish","duration":29},{"id":335477,"name":"Turkish","duration":13},{"id":334144,"name":"Sari Gelin","duration":26},{"id":1090329,"name":"Harbiye Marsi","duration":28},{"id":47120,"name":"turkish gitar","duration":20},{"id":1109924,"name":"Turkish Music","duration":22},{"id":1140232,"name":"Elimde degil","duration":15},{"id":1152222,"name":"I Cant Be","duration":30},{"id":984988,"name":"Batsin Bu Dunya","duration":28},{"id":1148648,"name":"Anama Ana diyesin","duration":27},{"id":33302,"name":"sevyeter","duration":5},{"id":1158064,"name":"Soz","duration":20},{"id":1265964,"name":"Cevap","duration":25},{"id":41487,"name":"allad\u00c4\u00b1 pullad\u00c4\u00b1","duration":30},{"id":1091981,"name":"Turkish ringtone","duration":29},{"id":895123,"name":"Spring Comes Sad","duration":21},{"id":1148153,"name":"ayrilik zor","duration":21},{"id":1247906,"name":"Ibrahim Tatlises","duration":29},{"id":981107,"name":"Remix Turkish","duration":29},{"id":173001,"name":"Desert Rose 3  Flute","duration":29},{"id":343407,"name":"Ihlamurlar Altinda 2","duration":29},{"id":806560,"name":"Turkish Telsiz Polis","duration":24},{"id":1098183,"name":"Turkish solo","duration":27},{"id":1041645,"name":"come on my heart","duration":27},{"id":999525,"name":"Bu Nasil Sevda 1","duration":11},{"id":53232,"name":"Turkish Soft Sad Music","duration":26},{"id":1276343,"name":"Nay Ring","duration":10},{"id":1040766,"name":"Ebru Gundes","duration":29},{"id":1260273,"name":"Turkish Flute","duration":26},{"id":1038701,"name":"Yallah Enstrumental","duration":29},{"id":1100200,"name":"Geri Ver","duration":25},{"id":288165,"name":"Sofya Dans","duration":29},{"id":826319,"name":"Cowboy Sms","duration":16},{"id":144524,"name":"New Turkish","duration":28},{"id":253829,"name":"Harbiye Marsi2 Tufi","duration":29},{"id":1041567,"name":"Summit","duration":29},{"id":1230662,"name":"Kurtlar Bu Ask","duration":29},{"id":1321973,"name":"Askimiz Bitmesin","duration":23},{"id":920479,"name":"Turkish Tone 2","duration":29},{"id":961659,"name":"Polis Telsizi","duration":23},{"id":1164186,"name":"ali kinik","duration":30},{"id":380057,"name":"Turkish Techno","duration":29}]}