{"queryTime":"0 Seconds","totalCount":826,"pageNumber":1,"perPage":200,"pageCount":200,"data":[{"id":80567,"name":"Wake Up Wake Up","duration":8},{"id":1116016,"name":"wake up","duration":10},{"id":877603,"name":"Wake Up Alarm","duration":16},{"id":1334826,"name":"Its Time To Get Up","duration":1},{"id":1240326,"name":"Good Morning","duration":20},{"id":63477,"name":"Best HTC ALARM sound","duration":24},{"id":3674,"name":"Open Your Eyes ALARM","duration":24},{"id":1125780,"name":"military wake up daw","duration":29},{"id":263485,"name":"Best Wake Up 2012","duration":6},{"id":10067,"name":"New HTC Alarm Tone","duration":3},{"id":50758,"name":"Open Your Eyes ALARM","duration":24},{"id":1325348,"name":"97 Wake Up Alarm","duration":10},{"id":891982,"name":"Wake Up Sid- Boondon","duration":27},{"id":831822,"name":"Short Alarm","duration":1},{"id":835589,"name":"Wake Up","duration":9},{"id":1117797,"name":"Eden Wake Up","duration":29},{"id":1029497,"name":"Best Wake Up Alarm","duration":29},{"id":1036346,"name":"Alarm Clock 08","duration":29},{"id":971714,"name":"Dont Hold Back","duration":28},{"id":838196,"name":"Best Wake Up","duration":28},{"id":1110811,"name":"Wake Up","duration":5},{"id":56212,"name":"alarm chiken","duration":28},{"id":1004800,"name":"Ui Alarm Clock Htc","duration":19},{"id":1027657,"name":"wake up","duration":19},{"id":833249,"name":"Magandang Umaga","duration":15},{"id":329594,"name":"Relaxing Wake Up","duration":20},{"id":938702,"name":"Boondon Ke Moti","duration":29},{"id":844003,"name":"Best Handy Alarm 2","duration":11},{"id":1008369,"name":"Handy Wake Up Alarm9","duration":28},{"id":315277,"name":"Azan","duration":29},{"id":1000682,"name":"Wake Up Sound New","duration":21},{"id":931444,"name":"Cmon Man Wake Up","duration":22},{"id":1124144,"name":"Dr Phil Wake UP","duration":4},{"id":81934,"name":"best wake up alarm","duration":29},{"id":195523,"name":"Bring Me Good News","duration":14},{"id":1197872,"name":"Good Morning Sir 6","duration":8},{"id":995617,"name":"Snooze Alarm Galaxy","duration":13},{"id":191548,"name":"Alarm Wake Up To Wor","duration":21},{"id":988388,"name":"Alarm Ultima Loud","duration":27},{"id":385836,"name":"Best Alarm","duration":17},{"id":129731,"name":"Wake Up","duration":18},{"id":798489,"name":"Alarm","duration":11},{"id":1039750,"name":"Alert Clock Extreme","duration":28},{"id":1036034,"name":"Samsung-WakeUpTone","duration":25},{"id":330578,"name":"Loud Trumpet Wake Up","duration":16},{"id":43781,"name":"Wake Up Sound - best all time super hit","duration":29},{"id":1154567,"name":"cool wake up sound","duration":30},{"id":963667,"name":"Wake Up","duration":28},{"id":838348,"name":"Wake Up Alarm","duration":13},{"id":844050,"name":"Best Handy Alarm","duration":17},{"id":999305,"name":"No1 Alarm Clock 01","duration":17},{"id":995298,"name":"Iphone Alarm 2013","duration":12},{"id":1014346,"name":"Sound Of Wake Up","duration":25},{"id":1040913,"name":"Galaxy S4-Alert Tone","duration":15},{"id":828410,"name":"Wake Up Time","duration":4},{"id":1021026,"name":"Dont Wake Me Up","duration":28},{"id":835838,"name":"Wake Up 2011","duration":29},{"id":988963,"name":"Army Wake Up Song","duration":29},{"id":849647,"name":"Seungie Wake Up Call","duration":8},{"id":1083573,"name":"Wake Up - Matthias","duration":16},{"id":1045811,"name":"KOKO3","duration":29},{"id":1156088,"name":"funky ringtone","duration":29},{"id":995611,"name":"Best Wake Up Alarm","duration":18},{"id":1040113,"name":"Loudest 3D Alarm","duration":28},{"id":1083652,"name":"Ducky wake up","duration":1},{"id":1083883,"name":"Must Wake Up","duration":8},{"id":834896,"name":"Morning Alarm","duration":28},{"id":1136506,"name":"Oliver  Gibonni","duration":28},{"id":844221,"name":"Decent Wake Up Tone","duration":27},{"id":1036620,"name":"Ultimate Alarm 2014","duration":29},{"id":814615,"name":"Wake-up Call","duration":28},{"id":1036353,"name":"Alarm Clock 003","duration":26},{"id":994766,"name":"Ultra Alarm 2013","duration":14},{"id":851072,"name":"Wake Up","duration":5},{"id":1163782,"name":"Wake up call","duration":16},{"id":1005556,"name":"Military Wake Up","duration":20},{"id":1036355,"name":"Alarm Clock 001","duration":23},{"id":1214718,"name":"Wake Up","duration":2},{"id":1106089,"name":"Army wake up song","duration":29},{"id":277931,"name":"Hyunseung","duration":9},{"id":1295839,"name":"Ja Cie Budzic","duration":28},{"id":1039927,"name":"WAKE UP SOUND HTC1","duration":21},{"id":841031,"name":"Chicken Alarm","duration":5},{"id":1245710,"name":"Wake Up Alarm","duration":10},{"id":844777,"name":"Best Alarm Tone","duration":29},{"id":1037346,"name":"Lumia Clock Bells","duration":17},{"id":290579,"name":"Reveille","duration":20},{"id":379665,"name":"Army Wake Up","duration":24},{"id":347351,"name":"Wake Up","duration":11},{"id":1151444,"name":"Sweet Child Piano","duration":16},{"id":1177572,"name":"Fast Alarm","duration":3},{"id":1039822,"name":"LG best Clock Alarm","duration":29},{"id":927524,"name":"Wake Up Sid","duration":16},{"id":1354447,"name":"Chillout","duration":28},{"id":124599,"name":"Beautiful Song","duration":28},{"id":348771,"name":"Wake Up","duration":13},{"id":51488,"name":"Best Alarm Buzzer Wake Up","duration":5},{"id":1187484,"name":"Wakey Wakey","duration":5},{"id":1004439,"name":"Alarm-clock 3d 2013","duration":28},{"id":1039973,"name":"Magic Bells 2014","duration":28},{"id":916775,"name":"Aw Yeah Wake Up Yeah","duration":29},{"id":195873,"name":"Get Up","duration":16},{"id":279943,"name":"Wake Up","duration":25},{"id":1254306,"name":"Hip Hop Alarm 2009","duration":8},{"id":49227,"name":"Craz yWake Up","duration":7},{"id":1052114,"name":"Wake Up Song","duration":14},{"id":925488,"name":"Wake Up","duration":14},{"id":1036983,"name":"S5 Wake Up Clock","duration":25},{"id":1106006,"name":"Mirror DJManniE","duration":28},{"id":1173823,"name":"Chicken Alarm","duration":8},{"id":1227627,"name":"Wake Up","duration":28},{"id":776200,"name":"Wake Up Jake Neytiri","duration":5},{"id":998554,"name":"Cool Android Alarm","duration":26},{"id":379642,"name":"Get Out Of Bed","duration":29},{"id":326991,"name":"Wake Up Cheer","duration":5},{"id":988365,"name":"Best Alarm Sound 12","duration":5},{"id":386109,"name":"Wake Up Alarm","duration":10},{"id":844818,"name":"Wake-up Alarm Sms","duration":6},{"id":1120473,"name":"A-Tom Wake Up Call","duration":15},{"id":1315022,"name":"Wake Up Sid","duration":19},{"id":1039357,"name":"iPhone6 Clock Alarm","duration":25},{"id":187646,"name":"Wake Up Sound Zen","duration":18},{"id":998788,"name":"Clock Alert Iphone5","duration":26},{"id":1241165,"name":"Silence","duration":27},{"id":1156294,"name":"doe a deer remix","duration":28},{"id":993586,"name":"Invasion Tune","duration":29},{"id":4699,"name":"best wake up alarm","duration":29},{"id":1043109,"name":"Wake Up Cool Alarm","duration":26},{"id":1004972,"name":"Classicalarmclock","duration":29},{"id":995564,"name":"R2d2 Wake Up","duration":1},{"id":1008596,"name":"Relaxing Wake Up No1","duration":28},{"id":1003784,"name":"Wake Up Sound Best 1","duration":29},{"id":262549,"name":"Wakeup","duration":7},{"id":1254567,"name":"Raining Wake Up","duration":15},{"id":1013464,"name":"Sweet Wake Up","duration":21},{"id":1281890,"name":"Wake Up Sid","duration":29},{"id":293420,"name":"Wake Up","duration":14},{"id":964762,"name":"Wake Up Sid","duration":27},{"id":368645,"name":"Wake Up And Get Up","duration":7},{"id":1190397,"name":"Wake Up","duration":12},{"id":820268,"name":"Wake Up Alert","duration":16},{"id":50530,"name":"Best Wake Up Countdown !","duration":30},{"id":1108556,"name":"How I hate to get up","duration":15},{"id":1042949,"name":"best wake up","duration":29},{"id":1217018,"name":"21 Th Century Alarm","duration":22},{"id":1281563,"name":"Wake Up Sid","duration":24},{"id":1004444,"name":"Soft Wake Up Sound 1","duration":28},{"id":1197868,"name":"Good Morning Sir 3","duration":12},{"id":996681,"name":"Wake Up Alarm 99","duration":8},{"id":993119,"name":"Wake Up Sound No1","duration":25},{"id":1168723,"name":"RX","duration":16},{"id":917676,"name":"Alert","duration":3},{"id":1197869,"name":"Good Morning Sir 4","duration":12},{"id":1125209,"name":"Your wake up call","duration":12},{"id":1008368,"name":"Handy Wake Up Alarm","duration":14},{"id":1011693,"name":"Nice Alarm","duration":12},{"id":969962,"name":"Extreme Alarm","duration":24},{"id":1164647,"name":"Best Wake up Alarm","duration":28},{"id":844006,"name":"Clock Alarm Buzzer 4","duration":9},{"id":1085452,"name":"loveWakingWithCem","duration":14},{"id":998793,"name":"Clock Alert 2013 Htc","duration":15},{"id":1183378,"name":"Dj Eko","duration":5},{"id":1037302,"name":"Best Wake Up Alarm","duration":7},{"id":1303821,"name":"3d Sms","duration":5},{"id":997763,"name":"Coolest Alert Clock","duration":26},{"id":1044079,"name":"Wake Up Alarm-NEW","duration":26},{"id":1163868,"name":"Unenthusiastic Alarm","duration":15},{"id":1044077,"name":"WAKE UP ALARM 102","duration":27},{"id":998563,"name":"No1 Iphone5 Alarm","duration":25},{"id":1040893,"name":"Alarm Clock S3 - Xtr","duration":23},{"id":880432,"name":"Crazy Wake Up","duration":7},{"id":9789,"name":"Trumpet Wake Up Loud","duration":17},{"id":293378,"name":"Wake Up","duration":7},{"id":974899,"name":"Old Syle Alarm Tone","duration":21},{"id":1262750,"name":"Abz  - Wake Up Alarm","duration":29},{"id":1027675,"name":"Wake Up Call","duration":29},{"id":50550,"name":"Best Wake Up Tone","duration":23},{"id":1003389,"name":"Stand-up Clock Alarm","duration":28},{"id":942229,"name":"Affectionate Wake Up","duration":18},{"id":802530,"name":"Funny Wake Up","duration":27},{"id":1282093,"name":"Kya Karoon 2 Wake Up","duration":21},{"id":1083885,"name":"Wake Up Horn","duration":4},{"id":1149998,"name":"Best Wake Up","duration":29},{"id":971624,"name":"Crazy Wake Up","duration":7},{"id":991256,"name":"Wake Up Tone","duration":22},{"id":1047535,"name":"Wake up Amelie piano","duration":20},{"id":1006265,"name":"Andoid Coolest Alarm","duration":21},{"id":1342584,"name":"Warning Tone","duration":10},{"id":953389,"name":"Crazy Wake Up","duration":7},{"id":1291786,"name":"Wake Up Sid","duration":20},{"id":1036296,"name":"Nokia Alarm Clock N1","duration":25},{"id":1004830,"name":"Black Rx Wake Up To","duration":16},{"id":881577,"name":"Anna Lesko - Wake Up","duration":29},{"id":1335995,"name":"Iktara Punjabi","duration":28},{"id":881984,"name":"Levantense Huevones","duration":11},{"id":10050,"name":"Best HTC Alarm","duration":20},{"id":112234,"name":"Best Wake Song","duration":29},{"id":1181391,"name":"Wake Up Time","duration":4},{"id":1207227,"name":"Wake Up Alarm","duration":10},{"id":1008979,"name":"Extra Alarm Iphone5","duration":19}]}