{"queryTime":"0 Seconds","totalCount":1158,"pageNumber":1,"perPage":200,"pageCount":200,"data":[{"id":1294219,"name":"Indian Water Beat","duration":20},{"id":111212,"name":"Water 3d","duration":5},{"id":1308920,"name":"Water Drop Sms","duration":10},{"id":1179558,"name":"Ill Be On The Water","duration":28},{"id":1025064,"name":"Water Drops","duration":10},{"id":340251,"name":"Hot Water On Wool 2","duration":27},{"id":1156670,"name":"WaterLanguage","duration":14},{"id":110813,"name":"Bajka","duration":29},{"id":796932,"name":"Water","duration":5},{"id":364616,"name":"Hot Water On Wool","duration":19},{"id":1209259,"name":"Water","duration":5},{"id":870075,"name":"Steps Water","duration":29},{"id":1337660,"name":"Water Effect","duration":5},{"id":1280709,"name":"Water Drops Sms","duration":6},{"id":975391,"name":"3d Water Drop","duration":5},{"id":1308080,"name":"Under Water","duration":2},{"id":1021324,"name":"drop some water","duration":13},{"id":1094038,"name":"Aci Su 3","duration":29},{"id":1127003,"name":"Dragons Breath","duration":26},{"id":1203365,"name":"Dew Drop","duration":29},{"id":824932,"name":"Water Sms","duration":5},{"id":1238154,"name":"Sms Water","duration":5},{"id":1179218,"name":"Suiton Suishoha","duration":8},{"id":1232928,"name":"Ocean Waves","duration":18},{"id":955080,"name":"Water Drop","duration":10},{"id":58734,"name":"Water","duration":5},{"id":1024420,"name":"FFwater","duration":27},{"id":330564,"name":"Water Drop","duration":3},{"id":1191713,"name":"Water Spill","duration":5},{"id":883011,"name":"New 3d Water","duration":4},{"id":1309058,"name":"Water","duration":29},{"id":1249590,"name":"Water Sound","duration":27},{"id":1178201,"name":"Water Funny","duration":5},{"id":1295816,"name":"Running Water","duration":5},{"id":976577,"name":"Water Please","duration":7},{"id":1194082,"name":"Water","duration":5},{"id":5615,"name":"Water alert","duration":5},{"id":1153231,"name":"Hydrocity Act1 FM","duration":30},{"id":115232,"name":"Be Water","duration":18},{"id":997938,"name":"Waterdrop","duration":1},{"id":1174118,"name":"Water","duration":5},{"id":1274689,"name":"Best Water","duration":16},{"id":1048263,"name":"Aquatic Ambiance","duration":28},{"id":1363409,"name":"Birds Playing Water","duration":23},{"id":828481,"name":"Water Pouring","duration":5},{"id":1350234,"name":"Water Sms","duration":5},{"id":1094040,"name":"Aci Su 5","duration":29},{"id":116934,"name":"3d Water Effect","duration":4},{"id":193149,"name":"Water New","duration":5},{"id":981746,"name":"Airtel Water Mix","duration":27},{"id":315087,"name":"Water Sound","duration":5},{"id":1176411,"name":"Sms In Water","duration":3},{"id":327936,"name":"Piano Water Love","duration":28},{"id":1325403,"name":"Water Sound","duration":28},{"id":879455,"name":"Water Switch On","duration":4},{"id":122145,"name":"3d Water Drop","duration":5},{"id":58736,"name":"Ice","duration":29},{"id":953203,"name":"Rainy","duration":29},{"id":1178624,"name":"Water","duration":5},{"id":119896,"name":"Water Sms","duration":5},{"id":1185841,"name":"Running Water","duration":10},{"id":917797,"name":"6yr Old Watersong","duration":12},{"id":58940,"name":"Digital Water Drops 2","duration":29},{"id":863797,"name":"Water Drops","duration":3},{"id":1299907,"name":"Water Effect","duration":2},{"id":840280,"name":"Toilet Flush","duration":15},{"id":234854,"name":"Akron Family","duration":29},{"id":342860,"name":"Eeram Theme","duration":29},{"id":265086,"name":"Bubbles","duration":18},{"id":1244870,"name":"H2o","duration":5},{"id":172344,"name":"Water","duration":5},{"id":1305784,"name":"Water Drops","duration":5},{"id":1188249,"name":"Water Flowing","duration":5},{"id":238764,"name":"Water Sound","duration":5},{"id":1337374,"name":"Water Drop","duration":6},{"id":921589,"name":"3d Water Balla","duration":5},{"id":245135,"name":"Water Flow","duration":5},{"id":249558,"name":"Bobling Water","duration":5},{"id":1323330,"name":"Water Msg","duration":5},{"id":856979,"name":"Drop Of Water","duration":5},{"id":814266,"name":"Water Tune","duration":9},{"id":974728,"name":"Water","duration":15},{"id":821958,"name":"Water Drops","duration":3},{"id":1212979,"name":"Water Drip","duration":8},{"id":879417,"name":"Flow Water","duration":16},{"id":1358772,"name":"3d Water Flow","duration":8},{"id":1199972,"name":"Strange Sound","duration":6},{"id":1287723,"name":"Water Wave Remix","duration":10},{"id":1297221,"name":"Waterfall","duration":4},{"id":872144,"name":"Water","duration":5},{"id":808765,"name":"Water","duration":5},{"id":1020986,"name":"nice banjo sea","duration":23},{"id":1032518,"name":"Water","duration":5},{"id":1300906,"name":"Water","duration":5},{"id":798293,"name":"Water","duration":5},{"id":1200833,"name":"Water","duration":5},{"id":1152173,"name":"Heater Thermostat","duration":7},{"id":83699,"name":"Breathing under Water","duration":25},{"id":1318752,"name":"Water Fountain","duration":5},{"id":263131,"name":"3d Water Drop V2","duration":5},{"id":834623,"name":"3d Iphone Sound","duration":4},{"id":314815,"name":"Water Drops","duration":5},{"id":801615,"name":"Thunder Water","duration":29},{"id":1253795,"name":"Water","duration":5},{"id":1205874,"name":"Water Message","duration":5},{"id":1327887,"name":"Creek","duration":5},{"id":1205557,"name":"Toilet 1","duration":8},{"id":243240,"name":"Agua","duration":5},{"id":357703,"name":"Water Mario Theme","duration":29},{"id":291898,"name":"Water","duration":5},{"id":1179217,"name":"Hyouton Vs Suiton","duration":11},{"id":862123,"name":"Waterfall Tone","duration":5},{"id":809608,"name":"Water","duration":5},{"id":182976,"name":"Water Tone 2011","duration":5},{"id":185499,"name":"Water","duration":25},{"id":1010483,"name":"Fog On Water","duration":23},{"id":1310523,"name":"Acid Mixer","duration":5},{"id":832290,"name":"Rain Vs Nature","duration":29},{"id":1178108,"name":"Submarine","duration":24},{"id":1228965,"name":"Waterfall","duration":5},{"id":929262,"name":"Water Drops","duration":5},{"id":237624,"name":"Uff Yeh Ada","duration":23},{"id":1044075,"name":"A Boy in the Water","duration":29},{"id":963473,"name":"Super Mario Bros","duration":29},{"id":914391,"name":"Iphone Water Tone","duration":22},{"id":1343637,"name":"Water","duration":6},{"id":242770,"name":"3d Water Tone","duration":3},{"id":32746,"name":"Water Drop Sms","duration":3},{"id":113389,"name":"River","duration":8},{"id":329164,"name":"3d Water Drop","duration":3},{"id":313041,"name":"Sms Water","duration":5},{"id":1321569,"name":"Water","duration":5},{"id":1337046,"name":"Boiling Water","duration":7},{"id":1274010,"name":"Water Loop Flow","duration":5},{"id":258020,"name":"Mario Water","duration":29},{"id":1187847,"name":"Toilet","duration":6},{"id":841268,"name":"Digital Water","duration":5},{"id":826437,"name":"3d Water Tone","duration":5},{"id":75550,"name":"water","duration":5},{"id":1208715,"name":"Airtel Water Sms","duration":10},{"id":869984,"name":"High Waterrrr","duration":5},{"id":199538,"name":"Birds In Water","duration":24},{"id":890853,"name":"Diffrent Water Drop","duration":2},{"id":924546,"name":"3d Water Sound","duration":3},{"id":869242,"name":"Water Sms Tone","duration":5},{"id":1011964,"name":"Water Sound","duration":5},{"id":1220597,"name":"Water","duration":5},{"id":1145554,"name":"Ark Under Water","duration":29},{"id":70973,"name":"Water Drop Sms","duration":2},{"id":231498,"name":"Standells-dirtywater","duration":13},{"id":1029481,"name":"Glass of water","duration":3},{"id":241632,"name":"Splash","duration":23},{"id":1283869,"name":"Water","duration":5},{"id":1237860,"name":"Sms Water Drops","duration":8},{"id":964740,"name":"Water","duration":25},{"id":836714,"name":"Water Flowing","duration":5},{"id":1253224,"name":"Water","duration":5},{"id":235207,"name":"Hot Water On Wool","duration":29},{"id":835948,"name":"3d Water Drop","duration":5},{"id":844214,"name":"Lyrical Water Drops","duration":28},{"id":1291244,"name":"River","duration":9},{"id":1323171,"name":"Watersms","duration":5},{"id":1294304,"name":"Water","duration":5},{"id":825525,"name":"Water","duration":5},{"id":1330486,"name":"Water","duration":3},{"id":1017535,"name":"Raining","duration":29},{"id":828686,"name":"Birds Playing Water","duration":23},{"id":1259048,"name":"Water Sound","duration":5},{"id":1163375,"name":"Waterdrop","duration":2},{"id":73141,"name":"Bubble sms","duration":3},{"id":829098,"name":"Message Tone","duration":4},{"id":1198001,"name":"Water","duration":5},{"id":1212027,"name":"Water","duration":5},{"id":373500,"name":"Arwen Water Spell","duration":15},{"id":1257781,"name":"Birds N Water","duration":18},{"id":1254283,"name":"The Forst","duration":29},{"id":1304373,"name":"Rain","duration":7},{"id":1342038,"name":"Sms Water","duration":5},{"id":312936,"name":"Water Msg","duration":5},{"id":821399,"name":"Water Flow","duration":16},{"id":779075,"name":"Sms Water","duration":5},{"id":841517,"name":"Digital Water Drops","duration":3},{"id":1338853,"name":"Distantwater","duration":4},{"id":1259342,"name":"Water","duration":5},{"id":45512,"name":"water & bird","duration":19},{"id":858412,"name":"Water Drop","duration":5},{"id":1219611,"name":"Water","duration":5},{"id":844720,"name":"Dripping Water","duration":27},{"id":898703,"name":"3d Water Effects","duration":16},{"id":279185,"name":"Feel Water","duration":5},{"id":231044,"name":"Airtel Droplets","duration":10},{"id":1197352,"name":"Hear It If U Can","duration":28},{"id":832750,"name":"Water","duration":5},{"id":1246809,"name":"Water Splash","duration":2},{"id":53065,"name":"Airtel water version","duration":10},{"id":1278172,"name":"Bubbles","duration":2},{"id":1181302,"name":"Fire Water","duration":28},{"id":1314666,"name":"Water","duration":5},{"id":1214242,"name":"Water In A Glass","duration":2},{"id":1207402,"name":"Water Runs Dry Intro","duration":10}]}