{"queryTime":"1 Seconds","totalCount":2126,"pageNumber":1,"perPage":200,"pageCount":200,"data":[{"id":1341468,"name":"Creambase","duration":6},{"id":1363936,"name":"Beautiful Violin","duration":29},{"id":850440,"name":"Spontaneous Me","duration":28},{"id":1041265,"name":"Al Arraf violin 2","duration":21},{"id":42715,"name":"Far Around The Bend-RC Week 206","duration":29},{"id":47613,"name":"Lovers Violin","duration":29},{"id":1281305,"name":"Tera Surroor","duration":29},{"id":956469,"name":"Orchestral","duration":14},{"id":110920,"name":"Chirakuveeshi Violin","duration":28},{"id":1036197,"name":"S5 Funky flutes","duration":20},{"id":282116,"name":"Aa Bhi Ja Theme","duration":8},{"id":46413,"name":"violin","duration":29},{"id":1244758,"name":"Thalavattam Violin","duration":22},{"id":863347,"name":"Arikil Nee Undayirun","duration":26},{"id":1017282,"name":"Thornes Violin","duration":29},{"id":846205,"name":"Violin Instrument","duration":29},{"id":17334,"name":"tranquillezza for string","duration":120},{"id":1018787,"name":"Violin","duration":6},{"id":1109984,"name":"Violin Sound 6","duration":4},{"id":283882,"name":"Muhabbatin Violin","duration":29},{"id":1114132,"name":"violin song","duration":29},{"id":1110404,"name":"Brothers enemies","duration":26},{"id":114641,"name":"Taal Violin","duration":12},{"id":47806,"name":"Violin Tabla","duration":22},{"id":785500,"name":"Yuvraj Violin","duration":28},{"id":1096620,"name":"Best Violin Dubstep","duration":29},{"id":163653,"name":"Superbviolintone","duration":28},{"id":1042110,"name":"Tower of dreams","duration":18},{"id":876027,"name":"Emotional Violin","duration":20},{"id":1113043,"name":"amazing violin","duration":22},{"id":1041754,"name":"Noel theme","duration":29},{"id":1090994,"name":"tango","duration":25},{"id":1109987,"name":"Violin Sound 9","duration":4},{"id":905781,"name":"Heaven Of Violins","duration":29},{"id":341344,"name":"Do Anything Ilayaraj","duration":28},{"id":1008664,"name":"Dubstep Violin","duration":28},{"id":868031,"name":"300 Violin Orchestra","duration":28},{"id":1293908,"name":"Violin Of Hope","duration":29},{"id":116533,"name":"Cute Violin Ringtone","duration":15},{"id":1322885,"name":"Very Sad Violin","duration":27},{"id":790867,"name":"Violin  Guitar","duration":18},{"id":304453,"name":"To The Last Place","duration":29},{"id":1226125,"name":"Post By Leroy","duration":28},{"id":116387,"name":"Phir Mohabbat Violin","duration":22},{"id":1052039,"name":"Dubstep","duration":29},{"id":1113344,"name":"Game of Thrones","duration":29},{"id":973537,"name":"Crazy Violin","duration":27},{"id":1281333,"name":"Shippuuden","duration":29},{"id":845444,"name":"Violin","duration":13},{"id":136127,"name":"Unchained Melody","duration":27},{"id":115859,"name":"Only You","duration":29},{"id":1180729,"name":"Practising Scales","duration":28},{"id":1332445,"name":"To You My Love","duration":19},{"id":1040277,"name":"Cafe Music","duration":9},{"id":995206,"name":"Romantic Violin","duration":27},{"id":1013455,"name":"Kasam Khake Instru","duration":26},{"id":1038660,"name":"best ever","duration":28},{"id":330010,"name":"Best Violin Ringtone","duration":29},{"id":1002079,"name":"Uprising Beat","duration":24},{"id":1023470,"name":"shes a pirate","duration":29},{"id":68442,"name":"Violin","duration":28},{"id":1044302,"name":"Electric Violin","duration":15},{"id":1042531,"name":"DubstepViolinLS","duration":27},{"id":884897,"name":"Violin","duration":28},{"id":1282569,"name":"Violin","duration":10},{"id":121861,"name":"Murder 2 Violin","duration":21},{"id":975379,"name":"Thuje Bula Diya New","duration":28},{"id":1008643,"name":"Murder 3 New Violin","duration":20},{"id":793438,"name":"Aisha Sweet Violin T","duration":24},{"id":177892,"name":"Airtel Violin","duration":27},{"id":876049,"name":"Android Violin","duration":28},{"id":1109965,"name":"Old Danish 1","duration":28},{"id":1135938,"name":"Dameesco - Awaken","duration":24},{"id":137405,"name":"Violin Bit","duration":28},{"id":1011080,"name":"Violin","duration":16},{"id":1166355,"name":"Lestats violin solo","duration":30},{"id":1159100,"name":"rockabye 2","duration":30},{"id":343417,"name":"Romanian Violin","duration":25},{"id":143976,"name":"Manmadhanambu Violin","duration":28},{"id":1324585,"name":"Violin N Guitar","duration":27},{"id":1272880,"name":"Hum Tumharen","duration":29},{"id":1098597,"name":"Serena Violin","duration":25},{"id":1086085,"name":"Gold Violin Mix","duration":18},{"id":953308,"name":"Violin Melody","duration":29},{"id":1276327,"name":"Airtel","duration":27},{"id":1123911,"name":"Tamil violin","duration":20},{"id":163647,"name":"Verysadviolin","duration":27},{"id":1117769,"name":"Mission Impossible 1","duration":29},{"id":1036199,"name":"S5 Meadow sunrise","duration":29},{"id":1316508,"name":"Hip Hop Beat 11","duration":26},{"id":992753,"name":"Ilu Ilu Whistle","duration":18},{"id":329753,"name":"Violin Dhaam Dhoom","duration":29},{"id":796030,"name":"New-violin","duration":25},{"id":909578,"name":"Sad Violin","duration":29},{"id":83614,"name":"Beautiful Violin","duration":17},{"id":1098381,"name":"La Soldier Dubstep 2","duration":28},{"id":1362523,"name":"Violin Trance","duration":28},{"id":244519,"name":"Beautiful Violin","duration":24},{"id":1178398,"name":"Feel Love - 1","duration":26},{"id":1349337,"name":"Very Hot Violin","duration":27},{"id":1290645,"name":"Conversation Violin","duration":29},{"id":220244,"name":"Vioara","duration":25},{"id":875856,"name":"Indian","duration":18},{"id":288453,"name":"Ciprian Porumbescu","duration":27},{"id":204845,"name":"Balabhaskar 3","duration":29},{"id":212769,"name":"Romantic Violin","duration":27},{"id":1165581,"name":"cool sounds14","duration":30},{"id":814954,"name":"Aaja Ace Violin","duration":21},{"id":287354,"name":"Very Soft Violin","duration":28},{"id":68836,"name":"Secret Love - Buddha Bar","duration":28},{"id":922850,"name":"Meltdown Violin","duration":28},{"id":255272,"name":"Bass Violin Suite","duration":29},{"id":1247752,"name":"Electric Violin 2","duration":29},{"id":116442,"name":"Violin Melody","duration":27},{"id":1036200,"name":"S5 my last bow","duration":23},{"id":807052,"name":"Violin Instrumental","duration":20},{"id":1034131,"name":"Beauty violin","duration":28},{"id":861287,"name":"Beautiful Melody","duration":29},{"id":804018,"name":"Best Sad Tone","duration":27},{"id":1287118,"name":"Best Violin","duration":29},{"id":1041764,"name":"Alex Medina Violin","duration":29},{"id":129412,"name":"Binks Sake Violin","duration":29},{"id":329877,"name":"Violin Trance 2011","duration":28},{"id":909140,"name":"Killzone 3","duration":29},{"id":1141856,"name":"Violing song","duration":29},{"id":1047974,"name":"Violin Song","duration":16},{"id":1039728,"name":"SmS Violin","duration":4},{"id":911536,"name":"Violin Beats","duration":29},{"id":1097096,"name":"Violin  Oud","duration":22},{"id":978691,"name":"Medieval Violin","duration":11},{"id":145308,"name":"Veryvery Clear","duration":29},{"id":1300054,"name":"Violin","duration":22},{"id":47996,"name":"violin","duration":28},{"id":244081,"name":"Best Violin","duration":29},{"id":203622,"name":"Violin And Guitar","duration":23},{"id":67979,"name":"India","duration":28},{"id":1028718,"name":"Best Piano-Violin","duration":29},{"id":284522,"name":"Great Violin Mj","duration":20},{"id":130122,"name":"Classical Violin","duration":20},{"id":367233,"name":"Violin Really Nice","duration":26},{"id":827291,"name":"Romantic Violin","duration":4},{"id":344424,"name":"Creepy-violin","duration":18},{"id":1149662,"name":"shape of you violin","duration":28},{"id":124356,"name":"Airplanes Rmx","duration":29},{"id":917832,"name":"Dream Violin","duration":29},{"id":1007126,"name":"Sad Violin","duration":29},{"id":279523,"name":"New Violin","duration":13},{"id":1049213,"name":"AC Rogue Theme Song","duration":29},{"id":982361,"name":"Barfi Violin","duration":24},{"id":1237538,"name":"Nodame","duration":23},{"id":1287743,"name":"Oriental Lovely","duration":28},{"id":351558,"name":"The Last Stand","duration":29},{"id":1155382,"name":"He is a Pirate SMS","duration":2},{"id":1014500,"name":"Metal Gear Solid","duration":29},{"id":127717,"name":"Violin Music","duration":29},{"id":865719,"name":"Mazhai Varum","duration":19},{"id":1279087,"name":"Albanian Violin","duration":23},{"id":1006841,"name":"Carnatic","duration":29},{"id":131884,"name":"Teenage Dream","duration":29},{"id":153632,"name":"Nice Violin","duration":10},{"id":288043,"name":"Scastjie V Drug","duration":28},{"id":824505,"name":"Violin Alert","duration":10},{"id":822602,"name":"Violin-msg","duration":3},{"id":781237,"name":"Aashique Banaya","duration":29},{"id":188653,"name":"Legend Of Zelda 2011","duration":23},{"id":114897,"name":"Beautiful Violin","duration":28},{"id":975311,"name":"Hatice","duration":25},{"id":1106837,"name":"Violin dubstep","duration":29},{"id":1200013,"name":"Life Violin","duration":28},{"id":1231330,"name":"Maestro6","duration":21},{"id":836014,"name":"Beautiful Violin","duration":25},{"id":80017,"name":"Cold Case Theme","duration":30},{"id":288136,"name":"Hot Violin","duration":27},{"id":982836,"name":"Most Romantic Violin","duration":29},{"id":387662,"name":"Sad Violin","duration":27},{"id":153920,"name":"Best Of Violin Rnr","duration":26},{"id":951667,"name":"Guitar Vs Violin","duration":26},{"id":1138987,"name":"Celtic Christmas","duration":16},{"id":132223,"name":"Strange Orchestra So","duration":12},{"id":125329,"name":"Dirty Classic 26","duration":29},{"id":818874,"name":"Soft Violin 2010","duration":29},{"id":964651,"name":"Dusty Wind Violin","duration":29},{"id":843408,"name":"Kabi Kabi-violin","duration":28},{"id":146024,"name":"Classical Ennildanga","duration":22},{"id":850424,"name":"Like A Movie","duration":29},{"id":988326,"name":"Superb Violin 2013","duration":29},{"id":1354721,"name":"Lounge Safari Violin","duration":21},{"id":1044853,"name":"Yanny-Violin","duration":29},{"id":836020,"name":"Best Violin","duration":21},{"id":1335125,"name":"Sad Violin","duration":27},{"id":1305787,"name":"Violin  Tabla","duration":22},{"id":46799,"name":"Arabic Lute","duration":20},{"id":840760,"name":"Love New Violin 2011","duration":16},{"id":165652,"name":"Violin","duration":29},{"id":853050,"name":"Erza Tai Erza","duration":28},{"id":777215,"name":"Sad Violin","duration":28},{"id":124113,"name":"Nice Violin","duration":23},{"id":83370,"name":"Hungarian Rhapsody","duration":28},{"id":84043,"name":"Secret Love - Buddha Bar","duration":28},{"id":1015028,"name":"Thalapthy Violin","duration":28}]}