{"queryTime":"1 Seconds","totalCount":316,"pageNumber":1,"perPage":200,"pageCount":200,"data":[{"id":58729,"name":"Arabic tabla","duration":27},{"id":821941,"name":"Twist Tabla","duration":19},{"id":83191,"name":"Very Nice Flut,Pankh hote to udd jati me","duration":29},{"id":778634,"name":"Soft Tabla Sms","duration":9},{"id":286907,"name":"Tabla","duration":2},{"id":45644,"name":"Arabic tabla","duration":28},{"id":1205333,"name":"Ghar Aaya -tabla Mix","duration":13},{"id":1216025,"name":"Maruthi Tvc Tabla As","duration":28},{"id":331268,"name":"Tabla With Flute","duration":18},{"id":367227,"name":"Anishtabla","duration":29},{"id":781695,"name":"Arabictabla","duration":28},{"id":838267,"name":"Tabla Effect","duration":11},{"id":333336,"name":"Tabla Phantom","duration":16},{"id":1194741,"name":"Haye Haye","duration":29},{"id":875870,"name":"Indian Classical","duration":21},{"id":103017,"name":"Tabla","duration":29},{"id":139831,"name":"Tabla","duration":29},{"id":136001,"name":"Airtel Tabla","duration":28},{"id":1168464,"name":"Tiatnic","duration":30},{"id":1287778,"name":"Indian Tabla","duration":18},{"id":1293280,"name":"Tabladdlj","duration":26},{"id":1033629,"name":"TITLE SONG BEST MUSI","duration":9},{"id":895601,"name":"Tabla Jazz","duration":15},{"id":868897,"name":"Sitar Tabla Flute 2","duration":20},{"id":1270728,"name":"Drums Indian Mix","duration":29},{"id":329090,"name":"Arabic Tabla","duration":28},{"id":1255516,"name":"Bansuri N Tabla","duration":28},{"id":336208,"name":"Ddlj Tabla Mix New","duration":21},{"id":116560,"name":"Violin Flute Tabla","duration":27},{"id":887400,"name":"Tabla","duration":14},{"id":41870,"name":"tabla popcorn","duration":11},{"id":1013763,"name":"Tabla","duration":3},{"id":825907,"name":"Ddlj Tabla","duration":28},{"id":1015077,"name":"Tabla Special Bprana","duration":29},{"id":827324,"name":"Flute Tabla 2","duration":21},{"id":201535,"name":"Strobe","duration":30},{"id":1341797,"name":"Tabla","duration":4},{"id":1255670,"name":"Latest Nokia","duration":18},{"id":47806,"name":"Violin Tabla","duration":22},{"id":1218694,"name":"Tabla","duration":19},{"id":1194557,"name":"Indian Drum Tabla","duration":9},{"id":1032198,"name":"Arabic Tabla","duration":29},{"id":851303,"name":"Airtel Tabla","duration":28},{"id":1147273,"name":"Desi Tabla music","duration":29},{"id":1359640,"name":"Ddlj Tabla Mix","duration":27},{"id":1039287,"name":"Tabla","duration":28},{"id":1316031,"name":"Tabla Effect","duration":11},{"id":1164598,"name":"PSL- Score card","duration":30},{"id":1285326,"name":"Ddlj Tabla","duration":27},{"id":287747,"name":"Tabla","duration":29},{"id":285338,"name":"Violin  Tabla","duration":22},{"id":328895,"name":"Flute Tabla","duration":19},{"id":337123,"name":"Arabic Tabla","duration":28},{"id":1154569,"name":"Africa","duration":28},{"id":1288928,"name":"Ddlj Tabla Mix","duration":28},{"id":827097,"name":"Best Tabla 2011","duration":23},{"id":1180305,"name":"Tabla Beat","duration":29},{"id":200366,"name":"Tabla","duration":28},{"id":1032435,"name":"Santoor Tabla","duration":20},{"id":157415,"name":"Fusion","duration":29},{"id":379677,"name":"Baje Sargam 3","duration":21},{"id":1293090,"name":"Ddlj Tabla Mix","duration":28},{"id":95570,"name":"Airtel Tabla Mix","duration":28},{"id":899961,"name":"Classical Blues","duration":26},{"id":126513,"name":"New Airtel Tabla","duration":28},{"id":778653,"name":"Raavan Tabla","duration":12},{"id":386337,"name":"Arabic Tabla","duration":28},{"id":789187,"name":"Dhol Tabla","duration":16},{"id":242141,"name":"Arabic Tabla","duration":28},{"id":1266323,"name":"Dj Tabla","duration":28},{"id":106758,"name":"Sitar With Tabla","duration":3},{"id":903192,"name":"Nice Classical Tone","duration":29},{"id":386030,"name":"Indian Tabla Sound","duration":28},{"id":1156364,"name":"Modern Arabian","duration":30},{"id":801885,"name":"Sitar Tabla Flute","duration":17},{"id":336345,"name":"Airtel-tabla","duration":28},{"id":875887,"name":"Classical Guitar","duration":24},{"id":344950,"name":"Great Sitar And Tabl","duration":7},{"id":286918,"name":"Sitar Tabla Violin","duration":29},{"id":348346,"name":"Tabla","duration":12},{"id":119139,"name":"Table N Sitar","duration":23},{"id":1214564,"name":"Flute","duration":23},{"id":801453,"name":"Ranaji","duration":4},{"id":777848,"name":"Flute Tabla Sitar","duration":21},{"id":914980,"name":"Bansuri N Tabla","duration":28},{"id":798363,"name":"Atif Tabla Mix","duration":27},{"id":1089034,"name":"Flute 2015 Latest","duration":20},{"id":369210,"name":"Dharmeshdid","duration":29},{"id":1231343,"name":"Ddlj-tabla","duration":28},{"id":1257312,"name":"Ddlj-tabla","duration":28},{"id":1330031,"name":"Beautifultabla","duration":27},{"id":1243836,"name":"Nokia Tabla","duration":29},{"id":817243,"name":"Naina-mil-tabla-mix","duration":29},{"id":1361292,"name":"Dhanno Tabla","duration":29},{"id":148545,"name":"Tabla -superb","duration":28},{"id":1171497,"name":"Best Piano classical","duration":14},{"id":1248698,"name":"Percussion","duration":25},{"id":106806,"name":"Flute Tabla Melody","duration":15},{"id":55270,"name":"Techno With Tabla","duration":18},{"id":1286219,"name":"Ddlj Tabla","duration":28},{"id":1365013,"name":"Santoor Tabla Manjir","duration":20},{"id":916115,"name":"Bansuri N Tabla Spl","duration":28},{"id":1179686,"name":"Tabla Beats Science2","duration":29},{"id":1352574,"name":"Arabic Tabla","duration":28},{"id":1286286,"name":"Instumental","duration":18},{"id":288923,"name":"Drona Bandagi","duration":12},{"id":997122,"name":"Tabla Minsara Poove","duration":13},{"id":777839,"name":"Sitar Tabla","duration":11},{"id":857096,"name":"Egyptian Nokia","duration":14},{"id":803140,"name":"Love Instrumental","duration":13},{"id":167905,"name":"Tabla Effects","duration":11},{"id":244454,"name":"Tabla Arabi","duration":20},{"id":846466,"name":"Dil Wale Dulhaniya","duration":28},{"id":1015080,"name":"Romantic Bpranav","duration":29},{"id":863791,"name":"Guitar With Tabla","duration":23},{"id":75731,"name":"Airtel Tabla Mix","duration":30},{"id":1285322,"name":"Airtel Tabla","duration":28},{"id":1279366,"name":"Tabla 2","duration":3},{"id":1276087,"name":"Ddlj Tabla","duration":28},{"id":1035039,"name":"Buautiful tabla","duration":27},{"id":796453,"name":"Violin Tabla Cool","duration":19},{"id":342985,"name":"Tabla","duration":14},{"id":1330186,"name":"Tabla","duration":4},{"id":245026,"name":"Arabic Tabla Tone","duration":28},{"id":784869,"name":"Ddlj Tabla Tune","duration":27},{"id":902365,"name":"Indian Music","duration":26},{"id":233121,"name":"Irani Music","duration":15},{"id":911938,"name":"Pungi- Tabla Edit","duration":23},{"id":822675,"name":"Matka And Tabla","duration":11},{"id":122996,"name":"Tabla Tone","duration":20},{"id":57030,"name":"tabla frog","duration":16},{"id":147581,"name":"Dj Sugz Desi Tabla","duration":29},{"id":20873,"name":"Techno With Tabla","duration":19},{"id":76760,"name":"Feel My Love","duration":19},{"id":814898,"name":"Santoor Flute Tabla","duration":26},{"id":1248954,"name":"Tabla","duration":14},{"id":46764,"name":"TABLA","duration":26},{"id":284683,"name":"Buautiful Tabla","duration":27},{"id":1015079,"name":"B Pranavs Best","duration":29},{"id":121776,"name":"Airtel Tabla","duration":28},{"id":775468,"name":"Flute Tabla Rhythm","duration":17},{"id":21348,"name":"electronik tabla","duration":19},{"id":384404,"name":"Airtel Tabla","duration":28},{"id":151779,"name":"Tabla Fast","duration":10},{"id":1316915,"name":"Idea Cellular Tabla","duration":29},{"id":1308237,"name":"Los Simpsons-hay Tab","duration":15},{"id":827331,"name":"Nokia Vs Tabla Msg","duration":7},{"id":342648,"name":"Tabla","duration":29},{"id":795238,"name":"Santoor Tabla Sitar","duration":20},{"id":1089036,"name":"Flute 2015 Masakali","duration":22},{"id":1044375,"name":"Awesome Tabla Violin","duration":29},{"id":837213,"name":"Indian Tabla Rap New","duration":28},{"id":1228957,"name":"Ddlj Tabla","duration":28},{"id":384379,"name":"Arabic Tabla","duration":27},{"id":354521,"name":"Mission Impossible 3","duration":27},{"id":284742,"name":"Tujhe Bhula Diya Rmx","duration":27},{"id":135025,"name":"Paal Beatz Tabla","duration":29},{"id":1025072,"name":"Tabla Flute Manjira","duration":29},{"id":1260617,"name":"Dj- Virat- Tabla","duration":20},{"id":829699,"name":"Ddlj Tabla Mix","duration":28},{"id":798686,"name":"Ddlj Tabla","duration":28},{"id":266147,"name":"Sms Airtel Tabla2011","duration":6},{"id":1364448,"name":"Tabla Thal","duration":14},{"id":1354434,"name":"Tabla Sms","duration":2},{"id":1321784,"name":"Dj - Tabla Mix","duration":11},{"id":284797,"name":"Bansuri And Tabla","duration":29},{"id":1208238,"name":"Ddlj Tabla Mix","duration":28},{"id":120664,"name":"D D L J Tabla","duration":27},{"id":126586,"name":"Airtel Tabla Latest","duration":28},{"id":381135,"name":"Tabla  Fluite","duration":29},{"id":242618,"name":"Piano Tabla Flute","duration":21},{"id":1192764,"name":"Tabala","duration":10},{"id":340997,"name":"Ddlj-tabla","duration":28},{"id":1322639,"name":"Ddljtabla Mix","duration":28},{"id":943296,"name":"Santoor Tabla Sitar","duration":20},{"id":31228,"name":"tabla frog","duration":16},{"id":1197424,"name":"Arabic Tabla","duration":14},{"id":344198,"name":"Arabic Tabla","duration":28},{"id":942500,"name":"Tabla Effect","duration":11},{"id":1323329,"name":"Mirza Flute","duration":29},{"id":950605,"name":"Tabla Beats","duration":7},{"id":920888,"name":"Fast Tabla","duration":11},{"id":299839,"name":"Arabic Tabla","duration":28},{"id":838270,"name":"Techno With Tabla","duration":18},{"id":113701,"name":"Tabla","duration":18},{"id":1025281,"name":"Mystic Flute","duration":20},{"id":1221951,"name":"Tabla With Lady","duration":29},{"id":189361,"name":"Twist Tabla Mix","duration":19},{"id":125766,"name":"Airtel Tabla 2011","duration":28},{"id":1183011,"name":"Woh Rehna Wali Mehlo","duration":29},{"id":110455,"name":"Arabic Tabla","duration":28},{"id":954461,"name":"Bansuri And Tabla","duration":28},{"id":1024859,"name":"Cascade Tabla mix","duration":17},{"id":1269413,"name":"Ddlj  Tabla","duration":28},{"id":115376,"name":"Tabla","duration":29},{"id":54620,"name":"electronik tabla","duration":19},{"id":1320889,"name":"Tabla Superb","duration":28},{"id":821173,"name":"Ddlj-tabla","duration":28},{"id":903216,"name":"Flute Tabla Rhythm 2","duration":12},{"id":1349388,"name":"Nokia India","duration":28}]}