{"queryTime":"0 Seconds","totalCount":444,"pageNumber":1,"perPage":200,"pageCount":200,"data":[{"id":70746,"name":"Vista tone","duration":6},{"id":1117224,"name":"Bastion Ultimate","duration":2},{"id":10305,"name":"CoKe AdVeRTiseMenT","duration":28},{"id":238810,"name":"Ufc","duration":29},{"id":942921,"name":"Maa Ultimate Love","duration":28},{"id":1107829,"name":"deadpool idea","duration":3},{"id":203019,"name":"Ultimate Trance","duration":27},{"id":1315789,"name":"Ultimate Gun","duration":18},{"id":1108140,"name":"Kabhi Jo Badal Barse","duration":27},{"id":947884,"name":"Ultimate Guitar","duration":25},{"id":267232,"name":"Ultimate Weapon","duration":18},{"id":777640,"name":"Ultimate Sound","duration":23},{"id":1245177,"name":"Forever Ultimate","duration":28},{"id":1248166,"name":"The Ultimate Showdow","duration":25},{"id":1335376,"name":"Ultimate","duration":15},{"id":809999,"name":"Gj Maccha Maccha","duration":29},{"id":1145729,"name":"Full Extreme Soca 17","duration":29},{"id":147462,"name":"Ultimate Gun","duration":18},{"id":116947,"name":"Mirapakay","duration":13},{"id":935257,"name":"Umvc3 Hawkeye Theme","duration":29},{"id":885660,"name":"Don Theme","duration":7},{"id":805683,"name":"Ultimate 2010","duration":5},{"id":1111047,"name":"Dont Forget to Writ","duration":1},{"id":1269234,"name":"The Ultimate Showdow","duration":28},{"id":809992,"name":"Walking Humming Love","duration":29},{"id":888175,"name":"Ultimate Sweet","duration":24},{"id":828476,"name":"Khanabadosh","duration":28},{"id":918457,"name":"Ultimate","duration":26},{"id":137252,"name":"Nokia Remix","duration":20},{"id":1104236,"name":"ultimate showdown","duration":29},{"id":810015,"name":"Gj Okariki Okkaru","duration":29},{"id":827989,"name":"Mathman","duration":24},{"id":1361232,"name":"Left For Dead Pills","duration":24},{"id":195967,"name":"Pop","duration":11},{"id":1107830,"name":"in my imagination","duration":5},{"id":3302,"name":"Ultimate Bass","duration":29},{"id":1115641,"name":"McCrees Ultimate","duration":3},{"id":809983,"name":"Nee Sneham Chinuku","duration":15},{"id":334037,"name":"Ultimate","duration":18},{"id":972889,"name":"Kodite Kottalira Ult","duration":27},{"id":1283572,"name":"Dancing Tiger","duration":23},{"id":68383,"name":"Ultimate Symphony","duration":20},{"id":777043,"name":"Drag0nball-z","duration":27},{"id":827542,"name":"Ultimate 3d","duration":5},{"id":1226407,"name":"Sci-fi","duration":3},{"id":801175,"name":"Ben10 Ultimate Alien","duration":20},{"id":898706,"name":"Ultimate 3e","duration":23},{"id":256591,"name":"Adhoore Adhoore","duration":28},{"id":811277,"name":"Kalsk Andhala Ammai","duration":29},{"id":954890,"name":"Mvc Vs","duration":3},{"id":858047,"name":"Ajith","duration":9},{"id":292495,"name":"Trumpet","duration":8},{"id":884565,"name":"Nocturneultimate1","duration":2},{"id":879133,"name":"Theme Of Hawkeye","duration":29},{"id":1115645,"name":"Mercys Ultimate","duration":1},{"id":841709,"name":"Ultimate Fire","duration":7},{"id":1347216,"name":"Ring Mix Bird","duration":16},{"id":813314,"name":"Ultimate Sound 2010","duration":10},{"id":83762,"name":"Titanic Flute","duration":20},{"id":1222040,"name":"Ultimate Showdown","duration":16},{"id":1316522,"name":"Ultimate Secrets","duration":28},{"id":1036619,"name":"Ultimate Warrior","duration":20},{"id":42729,"name":"BiRd DiScO","duration":12},{"id":934609,"name":"Nunsg Char Sel Ver 1","duration":29},{"id":1288227,"name":"Musical Sms","duration":9},{"id":152128,"name":"Guitar-ultimate","duration":25},{"id":980948,"name":"Tone Of 2012","duration":23},{"id":897114,"name":"Made 4 Zedgers","duration":29},{"id":1236646,"name":"Yem Chusi-music","duration":21},{"id":842286,"name":"Nokia Ultimate Mix","duration":28},{"id":896920,"name":"Nuns 2 Title 2","duration":29},{"id":278240,"name":"Nellore Pedda Reddy","duration":8},{"id":1229043,"name":"Sms Ultimate Tone","duration":3},{"id":225781,"name":"Billa","duration":28},{"id":231876,"name":"Ultimate Heroes","duration":26},{"id":255305,"name":"Ultimate Whistle Mix","duration":29},{"id":135275,"name":"Sura Ultimate","duration":10},{"id":1251105,"name":"Bass Ultimate","duration":23},{"id":253223,"name":"Funny Fart","duration":27},{"id":914983,"name":"Ultimate Dialogue","duration":8},{"id":1346089,"name":"Bass Tone","duration":28},{"id":1122120,"name":"A ultimate unpluged","duration":28},{"id":936868,"name":"Ultimate","duration":28},{"id":1348995,"name":"Fifa Ultimate","duration":12},{"id":242798,"name":"No 1 Guitar Sound","duration":29},{"id":810042,"name":"Gj Idiade Ammammmo","duration":29},{"id":165093,"name":"Dota Pudge Ultimate","duration":3},{"id":842213,"name":"Tere Naina Ultimate","duration":29},{"id":892204,"name":"Rajni Ringtone","duration":14},{"id":99135,"name":"GodFather","duration":6},{"id":829104,"name":"Idea","duration":1},{"id":806640,"name":"Ultimate Bass","duration":29},{"id":1201264,"name":"Ultimate Showdown","duration":24},{"id":778644,"name":"Ultimate Laugh Sms","duration":14},{"id":810697,"name":"Udayinchina Sangeeta","duration":17},{"id":1108138,"name":"Kun Faya Kun Atif","duration":29},{"id":1109908,"name":"Irelia Ult","duration":1},{"id":89522,"name":"Guitar Ultimate","duration":25},{"id":879436,"name":"Missfortuneultimate3","duration":2},{"id":1186740,"name":"Ultimateweapon Broke","duration":18},{"id":810702,"name":"Udayinchina Ultiimat","duration":29},{"id":1170940,"name":"Bastion OverwatchUlt","duration":4},{"id":841699,"name":"Ultimate Horror","duration":15},{"id":1303716,"name":"Guitar","duration":8},{"id":810732,"name":"Sreeram-mamare Hum","duration":15},{"id":183976,"name":"Guitar Ultimate","duration":25},{"id":976904,"name":"Challa Tune","duration":25},{"id":777823,"name":"Bol","duration":29},{"id":83763,"name":"Lovely Melody","duration":24},{"id":806776,"name":"2011 Ultimate Beat","duration":29},{"id":972367,"name":"3 In 1 Ultimate","duration":28},{"id":1350791,"name":"Guitar Ultimate","duration":25},{"id":1242306,"name":"One Love Vs Taal Mix","duration":26},{"id":1108143,"name":"Lagi Tumse Man Ki","duration":28},{"id":1295923,"name":"Ultimate Sound","duration":28},{"id":829124,"name":"Super Soft Flute","duration":16},{"id":1243113,"name":"Hip Hop Superb","duration":29},{"id":775781,"name":"Ultimate Bass","duration":28},{"id":94062,"name":"BiRd DiScO","duration":12},{"id":1007423,"name":"Ultimate Beats","duration":20},{"id":1306198,"name":"Ayyapa Gangaraj","duration":14},{"id":808274,"name":"Ultimate Arabic Bass","duration":21},{"id":185781,"name":"Walkman New","duration":29},{"id":950337,"name":"Ultimate","duration":11},{"id":1326977,"name":"Ultimatum 13","duration":20},{"id":14179,"name":"Ultimate Weapon","duration":18},{"id":1115781,"name":"Genji Ultimate","duration":4},{"id":930280,"name":"Sholay Ultimate","duration":28},{"id":813507,"name":"1 Baar Jo Maine","duration":18},{"id":74988,"name":"fire addiction","duration":26},{"id":1104164,"name":"Integra its the","duration":5},{"id":821018,"name":"Ieyasu Theme","duration":29},{"id":213961,"name":"Ultimate Tecno Remix","duration":20},{"id":72008,"name":"GLasS BreaKinG SmS","duration":4},{"id":947105,"name":"Ultimate Bass","duration":28},{"id":865328,"name":"Ultimate Guitar","duration":25},{"id":1218697,"name":"He Guzarish","duration":28},{"id":809268,"name":"Sonam V Katrina","duration":28},{"id":1347220,"name":"Aaja Mahi","duration":28},{"id":810028,"name":"Gj Idhiadhe 7janmalu","duration":29},{"id":255294,"name":"Bass With Beats","duration":28},{"id":1009840,"name":"Eternum Nocturne","duration":3},{"id":1186811,"name":"Ultimate Gun Riot","duration":17},{"id":1334005,"name":"Ishqiya Guitar","duration":29},{"id":1246765,"name":"Ultimate Showdown","duration":17},{"id":799107,"name":"Ultimate Rocker","duration":28},{"id":1148919,"name":"Overwatch Ultimate","duration":1},{"id":1099403,"name":"Monster Hunter 4 U","duration":3},{"id":827740,"name":"Ultimate 3 D","duration":5},{"id":1045936,"name":"Ultimate Truth","duration":29},{"id":905252,"name":"Blood Money","duration":13},{"id":810721,"name":"Mn Cheppana Humming","duration":29},{"id":809988,"name":"Neesneham Muddugumma","duration":29},{"id":810755,"name":"Lp Life Antha Vunta","duration":29},{"id":1354935,"name":"Ultimate Sound 2010","duration":23},{"id":1028071,"name":"tum Ho entry","duration":25},{"id":232181,"name":"Ultimate Sound","duration":23},{"id":790954,"name":"Ak-56","duration":4},{"id":946396,"name":"Holyshit","duration":3},{"id":957291,"name":"Vista Log On","duration":3},{"id":810031,"name":"Gj Idhiadhe Manusulo","duration":29},{"id":242989,"name":"Blackberry Ultimate","duration":28},{"id":1364825,"name":"Great Tune On Zedge","duration":21},{"id":1144785,"name":"Sombras Ultimate","duration":1},{"id":796650,"name":"Blue Ultimate","duration":21},{"id":810749,"name":"Lp Lier","duration":22},{"id":1108141,"name":"Ultimate Slow Tune","duration":24},{"id":841801,"name":"Ultimate","duration":12},{"id":1351306,"name":"Chicken Ultimate","duration":27},{"id":144160,"name":"Ajab Lehr","duration":28},{"id":866561,"name":"Sholay Ultimate","duration":28},{"id":827557,"name":"Style Guitar","duration":28},{"id":199833,"name":"Robo Harima Harima","duration":13},{"id":831108,"name":"Ultimate 2011 Mp3","duration":29},{"id":941306,"name":"Tuf Brasil","duration":29},{"id":853842,"name":"Ultimate Mix 2011","duration":28},{"id":970618,"name":"Duaa Ultimate","duration":27},{"id":824690,"name":"Bujjigadu","duration":4},{"id":973853,"name":"Cell Ultimate","duration":28},{"id":817708,"name":"Best Ultimate Music","duration":29},{"id":810730,"name":"Sreeram Chinnachirru","duration":29},{"id":1157801,"name":"DVa Pede pra nerfar","duration":1},{"id":78605,"name":"Ultimate weapon","duration":18},{"id":242982,"name":"Ultimate 3d 2011","duration":29},{"id":1320827,"name":"Guitar","duration":25},{"id":959879,"name":"Clap Mix New","duration":11},{"id":1239830,"name":"Royal Flushh","duration":29},{"id":224030,"name":"Thala","duration":21},{"id":829638,"name":"New Airtal Ring Tone","duration":29},{"id":802126,"name":"Ultimate Weapon 2011","duration":18},{"id":1037711,"name":"Ultimate Warrior 2","duration":29},{"id":934611,"name":"Nunsg Char Sel Ver 2","duration":29},{"id":962665,"name":"Ultimate Ninjaaaa","duration":4},{"id":810751,"name":"Lp Thamarany","duration":23},{"id":45039,"name":"Firing and blast","duration":18},{"id":1242994,"name":"Lagaan Remix","duration":28},{"id":897811,"name":"Ultimate Guitar Nvn","duration":18},{"id":1108144,"name":"Saajana","duration":29},{"id":949609,"name":"Atif Ultimate","duration":27},{"id":919535,"name":"Tollywood Premix","duration":29}]}