{"queryTime":"1 Seconds","totalCount":1876,"pageNumber":1,"perPage":200,"pageCount":200,"data":[{"id":1001859,"name":"Whistle Msg Tone","duration":1},{"id":186195,"name":"Dhoom Whistle","duration":18},{"id":919253,"name":"Csk Ku Whistle Pode","duration":29},{"id":1235978,"name":"Maine Pyar Kiya","duration":26},{"id":1085455,"name":"Whistle","duration":8},{"id":901994,"name":"Crazy Whistle","duration":2},{"id":905604,"name":"Whistle Sms","duration":5},{"id":1089113,"name":"Protoman Whistle","duration":3},{"id":824495,"name":"Agha Mix Whistle","duration":28},{"id":163348,"name":"Csk Whistle Podu","duration":28},{"id":1211349,"name":"Dhoom 2 New Whistle","duration":29},{"id":1123722,"name":"Steam Whistle","duration":2},{"id":1220754,"name":"R2d2 Whistle","duration":2},{"id":363971,"name":"Whistle Sms","duration":2},{"id":988778,"name":"Titanic Whistle 2013","duration":25},{"id":919099,"name":"Whistle","duration":3},{"id":1346127,"name":"S My C","duration":19},{"id":819256,"name":"Sifflement","duration":1},{"id":999290,"name":"David Whistle 2013","duration":20},{"id":824698,"name":"Rhtdm","duration":22},{"id":1259597,"name":"Chaltechalte Whistle","duration":29},{"id":988779,"name":"Whistle Beats 2013","duration":27},{"id":1259312,"name":"Rezerwa","duration":26},{"id":1009342,"name":"Spicy Whistle","duration":3},{"id":1165445,"name":"Cool Whistle HD","duration":20},{"id":1351985,"name":"Slide Whistle","duration":7},{"id":869803,"name":"Whistle Force","duration":21},{"id":1346250,"name":"Whistle Romantic","duration":23},{"id":917402,"name":"Despicable Me 2","duration":20},{"id":1248252,"name":"Meray Buddy","duration":19},{"id":1191637,"name":"Whistle Sms","duration":16},{"id":1147309,"name":"12 saal Bilal Saeed","duration":13},{"id":1111263,"name":"Protoman Whistle","duration":3},{"id":1236945,"name":"Sms","duration":2},{"id":171153,"name":"Whistle Breeze","duration":28},{"id":263257,"name":"Whistle","duration":10},{"id":1331446,"name":"Snoring Whistle","duration":28},{"id":977102,"name":"Barfi Whistle Sms","duration":4},{"id":1277061,"name":"Saudagar Whistle","duration":26},{"id":962008,"name":"Barfi Whistle","duration":26},{"id":1296959,"name":"Rhtdmwhistle","duration":22},{"id":1288373,"name":"Whistle Baas","duration":28},{"id":1022819,"name":"Whistle Reverse","duration":2},{"id":1020780,"name":"train whistle","duration":25},{"id":266024,"name":"Flirty Whistle","duration":3},{"id":940676,"name":"Cool Whistle","duration":28},{"id":1200009,"name":"Bird Whistle","duration":8},{"id":1154823,"name":"Best Ringtone 2017","duration":29},{"id":378343,"name":"Dmg Whistle","duration":7},{"id":1116752,"name":"Whistle Remix","duration":6},{"id":932054,"name":"Boatswains Ptw","duration":1},{"id":1046151,"name":"Whistle","duration":3},{"id":346651,"name":"Whistle Sms","duration":5},{"id":1294523,"name":"Mix Whistle","duration":28},{"id":89001,"name":"Whistle","duration":28},{"id":1004288,"name":"Django Whistle","duration":17},{"id":1259977,"name":"Nice Whistle","duration":29},{"id":954034,"name":"Galaxy S3 Whistle","duration":1},{"id":852669,"name":"Maine Pyar Kiya","duration":26},{"id":1205965,"name":"Fanaa Whistle","duration":17},{"id":906066,"name":"Circe Whistle","duration":1},{"id":113223,"name":"Whistle Melody","duration":21},{"id":798423,"name":"Titanic Whistle","duration":25},{"id":998432,"name":"Annoying Laugh","duration":10},{"id":1160198,"name":"Ayan Whistle","duration":23},{"id":1038377,"name":"Party Whistle","duration":13},{"id":959503,"name":"Rock Mafia Whistle","duration":23},{"id":1266098,"name":"Bird Whistle","duration":2},{"id":328428,"name":"Cool Whistle","duration":28},{"id":48106,"name":"Cowboy theme whistle","duration":22},{"id":1102581,"name":"Kathakali whistle","duration":29},{"id":903157,"name":"Quimby","duration":18},{"id":1108257,"name":"Lure Whistle II","duration":1},{"id":941148,"name":"Wolf Whistle Sound","duration":8},{"id":58790,"name":"Chinese Flute","duration":20},{"id":170282,"name":"Whistle Naughty1","duration":3},{"id":1148219,"name":"Vldose1","duration":6},{"id":864364,"name":"Blackberry Best","duration":22},{"id":154693,"name":"Award Wining Whistle","duration":28},{"id":1136804,"name":"Blackpink - Whistle","duration":20},{"id":975410,"name":"Referee Whistle","duration":1},{"id":1185139,"name":"Sports Wistle","duration":1},{"id":106517,"name":"Love Whistle","duration":2},{"id":988178,"name":"Barfi Whistle","duration":13},{"id":1055294,"name":"Ronan whistle","duration":12},{"id":1176003,"name":"Dhoom Again","duration":29},{"id":1320434,"name":"Whistle","duration":23},{"id":39089,"name":"Unnale_Unnale-Whistle-Ringtone","duration":18},{"id":133109,"name":"Hanna 2","duration":9},{"id":1182841,"name":"Train Whistle","duration":29},{"id":107707,"name":"Whistle","duration":3},{"id":968650,"name":"Barfi Whistle","duration":15},{"id":1345894,"name":"Romantic Whistle","duration":21},{"id":13725,"name":"whistle song.......","duration":21},{"id":1097802,"name":"Mocking Jay Whistle","duration":4},{"id":1008763,"name":"Kili Poyi","duration":10},{"id":877410,"name":"Whistle Lovely","duration":16},{"id":1119350,"name":"Melody Whistle","duration":28},{"id":1322648,"name":"Wavmp3 Pyar Impossib","duration":19},{"id":65426,"name":"Whistle Techno","duration":29},{"id":1335973,"name":"Fanna Whistle","duration":8},{"id":947963,"name":"Whistle","duration":8},{"id":778832,"name":"Aiyan Whistle","duration":29},{"id":183950,"name":"Fannah Whistle Music","duration":15},{"id":916784,"name":"Samsung Whistle","duration":1},{"id":215199,"name":"Padayappa Whistle","duration":24},{"id":1235004,"name":"Whistle Tone","duration":13},{"id":789112,"name":"Old Spice Whistle","duration":6},{"id":961526,"name":"Lovely Whistle","duration":15},{"id":991987,"name":"Mere Humsafar Music","duration":21},{"id":1044979,"name":"Whistle short","duration":1},{"id":387233,"name":"New Sms","duration":7},{"id":807072,"name":"Whistle","duration":2},{"id":118678,"name":"Dhinka Chika Whistle","duration":5},{"id":843055,"name":"Train Whistle","duration":15},{"id":195594,"name":"Bodyguard Whistle","duration":6},{"id":46393,"name":"Sweet whistle","duration":13},{"id":980202,"name":"Flirting Whistle","duration":3},{"id":286729,"name":"Force-whistle","duration":23},{"id":1014947,"name":"Samsung Whistle","duration":1},{"id":47449,"name":"Fabulous Whistle","duration":29},{"id":1167548,"name":"Flute Whistle","duration":4},{"id":996085,"name":"Music Clap Dance","duration":25},{"id":172351,"name":"Chandranudikunna Dik","duration":29},{"id":811464,"name":"Fanna Whistle","duration":17},{"id":858042,"name":"Whistle Fly","duration":14},{"id":150479,"name":"Cute Whistle","duration":28},{"id":313350,"name":"2010 Whistle","duration":3},{"id":255959,"name":"Csk Whistle","duration":29},{"id":1177811,"name":"Sixer Whistle","duration":29},{"id":365564,"name":"Dhanush","duration":11},{"id":824951,"name":"3d Whistle","duration":26},{"id":1218169,"name":"Best Trance","duration":18},{"id":106676,"name":"K2h2-whistle","duration":13},{"id":804879,"name":"Dtac Feel Good","duration":29},{"id":1355779,"name":"Ipl Whistle Csk","duration":29},{"id":287753,"name":"Titanic Whistle","duration":25},{"id":1014507,"name":"Castle Sms","duration":1},{"id":385930,"name":"Saudagar Whistle","duration":29},{"id":1006923,"name":"Nice Whistle Sms","duration":11},{"id":1199084,"name":"Dhoom 2 Whistle","duration":19},{"id":1304009,"name":"Kosmodream","duration":20},{"id":1363539,"name":"Love Whistle","duration":9},{"id":874891,"name":"2012 Best Ringtone","duration":29},{"id":937359,"name":"Illu Illu Whistle","duration":16},{"id":909436,"name":"Samsung Whistle","duration":1},{"id":875237,"name":"Nobrain Dk Song","duration":29},{"id":840180,"name":"Hi Ya Beautiful","duration":5},{"id":940970,"name":"Whistle","duration":1},{"id":1028754,"name":"Whistle-Mix 1","duration":7},{"id":313450,"name":"Whistle","duration":16},{"id":832564,"name":"Wolf Whistle","duration":2},{"id":1324211,"name":"Kill Bill Whistle","duration":28},{"id":866808,"name":"Love In The Air","duration":14},{"id":991165,"name":"3d Whistle Tone","duration":26},{"id":1200543,"name":"Whistle","duration":2},{"id":976966,"name":"Amazign Whistle","duration":18},{"id":386007,"name":"Oompa Loompa Whistle","duration":2},{"id":264261,"name":"Whistle","duration":26},{"id":1150363,"name":"Araabmuzik - Whistle","duration":26},{"id":205617,"name":"Whistle","duration":13},{"id":295132,"name":"Whistle With Music","duration":25},{"id":1166220,"name":"Yondu Whistle","duration":3},{"id":88113,"name":"whistle","duration":20},{"id":794087,"name":"Whistle-airtel","duration":28},{"id":135518,"name":"Maay Madhathil","duration":25},{"id":1118944,"name":"Whistle music tamil","duration":28},{"id":48440,"name":"Whistle (Isl\u00c3\u201e\u00c2\u00b1k)","duration":30},{"id":39770,"name":"Cute Whistle Deiva","duration":29},{"id":964336,"name":"Saudagar","duration":15},{"id":791950,"name":"Titanic Whistle","duration":25},{"id":1286509,"name":"Whistlefana","duration":17},{"id":1029457,"name":"Whistle 5","duration":2},{"id":1305902,"name":"Raat Gayi Baat Gayi","duration":10},{"id":825489,"name":"Baazigar Whistle","duration":29},{"id":1295823,"name":"We Love Dancing","duration":29},{"id":1224048,"name":"Kareeb Whistle","duration":19},{"id":1261042,"name":"Flirts Whistle - Sms","duration":3},{"id":1042114,"name":"Whistle Guitar","duration":17},{"id":1356063,"name":"Whistle Ringtone 1","duration":28},{"id":913589,"name":"Romantic Whistle","duration":25},{"id":352035,"name":"Whistle","duration":28},{"id":1036288,"name":"Short whistle","duration":1},{"id":243156,"name":"Flirt Whistle","duration":21},{"id":960100,"name":"Chappakurish Whistle","duration":19},{"id":229686,"name":"3d Chill Chill","duration":14},{"id":1318719,"name":"New Whistle Sms","duration":1},{"id":284711,"name":"Whistle Kkhh","duration":13},{"id":1329463,"name":"Ilu Ilu","duration":27},{"id":814416,"name":"Old Whistle","duration":2},{"id":782403,"name":"Whistle Remix","duration":29},{"id":1355550,"name":"Whistle","duration":17},{"id":1164503,"name":"Apple Whale Whistle","duration":29},{"id":1008600,"name":"Whistle For Phone","duration":15},{"id":965945,"name":"Bird Whistle","duration":10},{"id":1043713,"name":"Whatsapp Message S4","duration":2},{"id":242800,"name":"Dhoom Whistle","duration":19},{"id":1271153,"name":"Baazigar Whistle","duration":29},{"id":937398,"name":"Whistle Sham Mastani","duration":22},{"id":1316271,"name":"Whistle Tune","duration":21}]}