{"queryTime":"1 Seconds","totalCount":8656,"pageNumber":1,"perPage":200,"pageCount":200,"data":[{"id":95227,"name":"sarvam-original","duration":29},{"id":338440,"name":"Transformers 3","duration":17},{"id":10769,"name":"Kadalora kavithai","duration":17},{"id":154602,"name":"Uyirile","duration":26},{"id":978783,"name":"Telugu Song","duration":29},{"id":339375,"name":"Yedhedho Yen","duration":29},{"id":1350773,"name":"Poongatre Poongarte","duration":29},{"id":1007039,"name":"Kannukum Kannukum","duration":20},{"id":137623,"name":"Myna Jing","duration":19},{"id":130488,"name":"Hari Om Hari","duration":14},{"id":1289098,"name":"Happy Tone Tamil","duration":18},{"id":371013,"name":"Mms","duration":16},{"id":354895,"name":"Beema","duration":29},{"id":950830,"name":"Nadu Samathila","duration":29},{"id":363597,"name":"Romantic Music","duration":29},{"id":1241549,"name":"Uyir Piriyum","duration":29},{"id":1249681,"name":"Tamil Rahman Melody","duration":15},{"id":868094,"name":"Gentle Man","duration":17},{"id":1285718,"name":"Rockin Sms","duration":1},{"id":826575,"name":"Yappatu Pattalum","duration":2},{"id":881194,"name":"Kolaveri Message","duration":9},{"id":978918,"name":"Murai Ponnu Comedy","duration":10},{"id":186139,"name":"Tamil Ayan","duration":28},{"id":349780,"name":"Ayan Honey","duration":20},{"id":925009,"name":"Tamil Comedy13","duration":1},{"id":1204736,"name":"Clubmix  Tamil Power","duration":26},{"id":114290,"name":"Kamal Funny Dialogue","duration":6},{"id":943644,"name":"Santhanam","duration":3},{"id":1261013,"name":"Dham Dhoom Supertone","duration":29},{"id":37475,"name":"sweet lady voice","duration":18},{"id":342384,"name":"Best Ringtone 3","duration":29},{"id":1239503,"name":"Billa Theme","duration":29},{"id":1214919,"name":"Tamil Mixed Songs","duration":29},{"id":826603,"name":"Aadhavan Violin","duration":9},{"id":815235,"name":"Sms Torn Paper","duration":4},{"id":1206148,"name":"Nenjilathadialibaba","duration":29},{"id":1293256,"name":"Hei Neenka","duration":8},{"id":950860,"name":"Kalangakaththala","duration":20},{"id":281666,"name":"Mangatha Dialog","duration":14},{"id":301122,"name":"Ilayaraja Music","duration":28},{"id":829340,"name":"Vijay-asin Dialog","duration":7},{"id":1339490,"name":"Tamil Nenje Nenje","duration":29},{"id":324851,"name":"Tamil Funny Dialogue","duration":2},{"id":1236499,"name":"Smshumm","duration":27},{"id":1283239,"name":"Pudhupettai Bodhai","duration":17},{"id":980668,"name":"Podaa Podi","duration":27},{"id":255801,"name":"Ko Tamil Movie","duration":1},{"id":1250531,"name":"Tamil Rahman Hits","duration":29},{"id":808480,"name":"Un Perai Sollum Pote","duration":29},{"id":5523,"name":"sexy sound","duration":28},{"id":808921,"name":"Airtel Tamil Mix","duration":18},{"id":958620,"name":"Ilayaraja Best Flute","duration":29},{"id":970296,"name":"Ithu Ithu Ithupona","duration":19},{"id":806969,"name":"Love Whistle","duration":22},{"id":1267095,"name":"Hey Rosu Rosu Rosu","duration":26},{"id":949402,"name":"Angelvandalae-vijay","duration":19},{"id":353772,"name":"Kadhal","duration":30},{"id":9994,"name":"murugan","duration":30},{"id":345229,"name":"Tamil Comedy","duration":3},{"id":1242258,"name":"Tamil Rap-clear","duration":23},{"id":179627,"name":"Unni Munbe","duration":24},{"id":1330228,"name":"Asal-new Themes","duration":16},{"id":353537,"name":"Sakhiha","duration":29},{"id":1349932,"name":"Vadivelul Comedy","duration":5},{"id":366808,"name":"Poova Eduthu","duration":25},{"id":222664,"name":"Mankatha-mild Rock 1","duration":24},{"id":1199049,"name":"Vadi Varalaru","duration":7},{"id":1347510,"name":"Yen Kadhal Solla","duration":19},{"id":1349265,"name":"Yuvan Adada Adada","duration":30},{"id":5902,"name":"nanana lalala","duration":28},{"id":847002,"name":"Tamil-vadivel Funny","duration":28},{"id":317053,"name":"Thottam Koonda","duration":29},{"id":112558,"name":"Payya","duration":29},{"id":44372,"name":"Mixed Drums","duration":29},{"id":829235,"name":"Manmadhu Ringtone 2","duration":29},{"id":1152027,"name":"Remo First Sight","duration":18},{"id":325346,"name":"Vettaikaran Punch","duration":12},{"id":101880,"name":"vadivelu","duration":6},{"id":290781,"name":"Kudikaran2","duration":29},{"id":1219162,"name":"Pogathe Part 2 Audio","duration":29},{"id":876678,"name":"Cool Tone","duration":17},{"id":340638,"name":"Machaan Machaan","duration":29},{"id":10768,"name":"Kodiyele malligai","duration":21},{"id":835211,"name":"Imaithutane","duration":29},{"id":332510,"name":"Illamai Ullasam","duration":29},{"id":1327626,"name":"Ddn","duration":17},{"id":948000,"name":"Nan Rembo Busy","duration":3},{"id":876571,"name":"Thala Mankatha","duration":29},{"id":927461,"name":"Billa 2 Gangster","duration":27},{"id":354207,"name":"Goa","duration":24},{"id":281570,"name":"Love Means Tamil","duration":18},{"id":104857,"name":"Tamil Latest Tonez","duration":28},{"id":353620,"name":"Tamil Songs","duration":13},{"id":356579,"name":"Enthiranmiscq","duration":15},{"id":914072,"name":"Raman Andalum Ravan","duration":24},{"id":1119227,"name":"Neruppuda Kabali","duration":29},{"id":838313,"name":"Lucky","duration":29},{"id":1203087,"name":"Uyirin Uyire","duration":23},{"id":1201142,"name":"Chakra Remix","duration":29},{"id":283287,"name":"Ganapatheye","duration":27},{"id":345437,"name":"Vivek Comedy","duration":18},{"id":1316799,"name":"Kathal Kasakuthaiya","duration":29},{"id":838309,"name":"Lucky","duration":23},{"id":77903,"name":"Wild West","duration":19},{"id":1274718,"name":"Tamil","duration":15},{"id":240779,"name":"Rock Guitar","duration":19},{"id":943888,"name":"Santhanam","duration":13},{"id":990565,"name":"I Am Kuthu Dancer 2","duration":20},{"id":259288,"name":"Varanam Ayiram","duration":25},{"id":283771,"name":"Tamil","duration":24},{"id":924993,"name":"Tamil Comedy7","duration":3},{"id":299109,"name":"Ar Rehman Best Tone","duration":28},{"id":822940,"name":"Uthama Puthiran","duration":15},{"id":156788,"name":"Comedy 1992","duration":14},{"id":383819,"name":"Talk Tamil","duration":18},{"id":860369,"name":"Whistle 2","duration":13},{"id":191183,"name":"En Swasam - Dilip","duration":24},{"id":1254749,"name":"Ennasollappokirai","duration":29},{"id":284970,"name":"Pollathavan","duration":29},{"id":818141,"name":"Lucky","duration":29},{"id":1343168,"name":"Sweet Melody","duration":28},{"id":285535,"name":"Indian Movie Intro","duration":29},{"id":978303,"name":"Thathuvam-2012","duration":12},{"id":250211,"name":"Free Ya-santhanam","duration":8},{"id":1308804,"name":"Kkt","duration":16},{"id":348327,"name":"Siva Manasula Sakthi","duration":29},{"id":362803,"name":"Theme","duration":29},{"id":282254,"name":"Anthiyela Vanam Musi","duration":10},{"id":1236884,"name":"Vadivelu Shock","duration":2},{"id":807626,"name":"Baana Kaathadi","duration":23},{"id":1305616,"name":"Chinna Thamarai","duration":27},{"id":353632,"name":"Kakkakakka","duration":20},{"id":340380,"name":"Love Feel","duration":15},{"id":912418,"name":"Tamil Kadal","duration":15},{"id":950628,"name":"Un Pere Theriyathu","duration":29},{"id":992373,"name":"Saran","duration":24},{"id":1127294,"name":"Nakku Mukka","duration":29},{"id":1014564,"name":"Puriyavillai Flute","duration":23},{"id":271654,"name":"En Kadhal Solla","duration":25},{"id":1254715,"name":"Adi Ennadi Rakkamma","duration":29},{"id":1267373,"name":"Nice Music","duration":29},{"id":967469,"name":"Ilayaraja Hits","duration":29},{"id":868019,"name":"Tamil Flute","duration":29},{"id":804029,"name":"Naan Mahaan Alla","duration":29},{"id":1315129,"name":"Ah Aah","duration":24},{"id":1308409,"name":"Margazhil Poove","duration":29},{"id":144467,"name":"Villu Ringtone","duration":14},{"id":1234638,"name":"Tamil","duration":26},{"id":317007,"name":"Then Puduicha","duration":24},{"id":1203138,"name":"Naaku Mukka","duration":28},{"id":1358866,"name":"Must Hear","duration":23},{"id":887876,"name":"Thuppakki Ringtone","duration":29},{"id":236206,"name":"Dj-x Blood River","duration":28},{"id":366320,"name":"Vadivelu Song","duration":29},{"id":1188208,"name":"Santosh Subramaniam","duration":29},{"id":1246927,"name":"Baby Tune","duration":29},{"id":997947,"name":"Un Thalaimudi","duration":25},{"id":1105479,"name":"Vip amma","duration":18},{"id":1010470,"name":"Elamaiennum","duration":29},{"id":280948,"name":"Ennama Kannu","duration":28},{"id":124960,"name":"Endhiran Symphony","duration":22},{"id":838305,"name":"Lucky","duration":29},{"id":1303009,"name":"Eeram","duration":17},{"id":1349338,"name":"Hasili Fasili","duration":29},{"id":1320578,"name":"Kuthu Vilakku","duration":29},{"id":859514,"name":"Engeyum Eppothum","duration":29},{"id":1169687,"name":"love simbhu2","duration":18},{"id":1345351,"name":"Saami Kuthu","duration":29},{"id":1169080,"name":"pudhiya paadhai","duration":29},{"id":838315,"name":"Lucky","duration":29},{"id":981285,"name":"Podaa Podi","duration":21},{"id":349280,"name":"Ayan","duration":25},{"id":1284868,"name":"Smt","duration":21},{"id":287765,"name":"Tamil","duration":28},{"id":41101,"name":"muruga vel","duration":30},{"id":843957,"name":"Anbe Sivam","duration":14},{"id":1334175,"name":"New Hello","duration":11},{"id":277719,"name":"Love Dialogue","duration":29},{"id":862573,"name":"Santhanam New","duration":12},{"id":160539,"name":"Sarvam Love Bgm","duration":28},{"id":339798,"name":"Tamil Love","duration":29},{"id":1234601,"name":"Tamil","duration":12},{"id":244740,"name":"Tamil Semmozhiyam","duration":26},{"id":191124,"name":"Vaanavillai","duration":29},{"id":957639,"name":"Biilla 2","duration":27},{"id":356302,"name":"Kacheri Aarambam","duration":29},{"id":948077,"name":"Valiya Vidungadi","duration":1},{"id":325303,"name":"Arundathi Tamil","duration":22},{"id":987204,"name":"Kolaveri Music","duration":10},{"id":262541,"name":"Love Dialogue Tamil","duration":8},{"id":342790,"name":"Ilayaraja Metti Oli","duration":29},{"id":63480,"name":"AVAN IVAN-2","duration":13},{"id":1043879,"name":"Biriyani Notif 2","duration":3},{"id":299366,"name":"Rajni Motta Boss","duration":29},{"id":179641,"name":"Love Unni","duration":25},{"id":373432,"name":"Ava Enna","duration":29},{"id":1259228,"name":"Winner","duration":27},{"id":988262,"name":"Western Note","duration":27},{"id":47540,"name":"instrumental","duration":26},{"id":1203135,"name":"Unn Siripinil","duration":29}]}